"","SubID","Envelope","Phoneme.Onset","Word.Onset","PitchInt","Lip_Area","Hearing_Db","Age","Comprehension","Attention","Difficulty","Modality","Mask","Dist","VisualOnly","VisualOnly.center","Hearing_Db.center"
"1",1,0.339635249882453,0.136544166431456,0.0922095215301443,0.274014723407101,0.0390340563464781,29.5454545454545,71,0.8125,5,4,1,0,0,0.0232024929868036,-0.0991709434508433,7.79511533242871
"2",1,0.147629590918596,0.0582054745682917,0.0199458269936136,0.0833440708746168,-0.00245168715199045,29.5454545454545,71,0.75,5,4.5,1,0,1,0.0232024929868036,-0.0991709434508433,7.79511533242871
"3",1,0.292459660961797,0.101915903941547,0.0565042267985456,0.231149107025123,NA,29.5454545454545,71,0.75,5,4,1,1,0,0.0232024929868036,-0.0991709434508433,7.79511533242871
"4",1,0.150531986949492,0.0624237519222933,0.0229261734009441,0.141639839566892,NA,29.5454545454545,71,0.75,5,5,1,1,1,0.0232024929868036,-0.0991709434508433,7.79511533242871
"5",1,0.313325334532064,0.117684662776576,0.068338894562852,0.253836157885343,0.00764614544244575,29.5454545454545,71,0.6875,5,4,0,0,0,0.0232024929868036,-0.0991709434508433,7.79511533242871
"6",1,0.14163459352934,0.0358369953391398,0.0401822856643095,0.142040496614651,0.0534319482003826,29.5454545454545,71,0.5,5,5,0,0,1,0.0232024929868036,-0.0991709434508433,7.79511533242871
"7",1,0.331744021073027,0.123682890585705,0.0750132384910136,0.283745591036336,NA,29.5454545454545,71,0.5,4,3.5,0,1,0,0.0232024929868036,-0.0991709434508433,7.79511533242871
"8",1,0.117840630875985,0.00441235060943818,0.0118914068272273,0.0764604797341998,NA,29.5454545454545,71,0.25,5,4.5,0,1,1,0.0232024929868036,-0.0991709434508433,7.79511533242871
"9",2,0.391109099502672,0.170333212933867,0.139326343868562,0.334004441632556,0.132996044526909,35.9090909090909,70,0.75,4.5,1,1,0,0,0.16947876646108,0.0471053300234331,14.1587516960651
"10",2,0.12255871593223,0.082633071160688,0.0495768832533703,0.109035475991735,0.0358796056419182,35.9090909090909,70,0.5,5,4.5,1,0,1,0.16947876646108,0.0471053300234331,14.1587516960651
"11",2,0.327413896390182,0.146678542085509,0.0998042674823254,0.282375645227931,NA,35.9090909090909,70,0.5,4,3,1,1,0,0.16947876646108,0.0471053300234331,14.1587516960651
"12",2,0.0281689922246914,0.0312249702397557,0.0154771150511708,0.049073187145843,NA,35.9090909090909,70,1,5,5,1,1,1,0.16947876646108,0.0471053300234331,14.1587516960651
"13",2,0.403630108597222,0.171738018994388,0.136582842352397,0.342198225390193,0.0431365334328349,35.9090909090909,70,0.625,4.5,1,0,0,0,0.16947876646108,0.0471053300234331,14.1587516960651
"14",2,0.0789457352662523,0.0508669374014885,0.0292888944388872,0.0552005842891457,0.0458184251652485,35.9090909090909,70,0.25,5,5,0,0,1,0.16947876646108,0.0471053300234331,14.1587516960651
"15",2,0.493026154864532,0.168642753756322,0.160222131928843,0.403709730746234,NA,35.9090909090909,70,0.5,5,1.5,0,1,0,0.16947876646108,0.0471053300234331,14.1587516960651
"16",2,0.0240526532975633,0.0091304741075606,0.0163922405929843,0.0296052327123069,NA,35.9090909090909,70,0.5,4.5,5,0,1,1,0.16947876646108,0.0471053300234331,14.1587516960651
"17",3,0.400900827256022,0.171591150550525,0.0793305943332765,0.324098287684275,0.128419310296119,18.4090909090909,68,0.875,4.5,2,1,0,0,-0.0132937857429331,-0.13566722218058,-3.34124830393489
"18",3,0.0988436034138697,0.0491626672817169,0.0326505244884471,0.0739274527511866,0.0340267937520084,18.4090909090909,68,0.5,5,3.5,1,0,1,-0.0132937857429331,-0.13566722218058,-3.34124830393489
"19",3,0.408666979603929,0.148078154544578,0.0831745611476817,0.318394292800063,NA,18.4090909090909,68,1,4.5,2,1,1,0,-0.0132937857429331,-0.13566722218058,-3.34124830393489
"20",3,-0.00238835975514082,0.0441815403926693,0.0197721193358659,-0.00230054532334449,NA,18.4090909090909,68,0.75,4.5,4.5,1,1,1,-0.0132937857429331,-0.13566722218058,-3.34124830393489
"21",3,0.259818686410192,0.108625491304975,0.0740235212512425,0.206996956807291,-0.000846352154730192,18.4090909090909,68,0.75,5,4,0,0,0,-0.0132937857429331,-0.13566722218058,-3.34124830393489
"22",3,0.18756592550313,0.0655982073299464,0.036698197529622,0.134593157944255,0.0350617160906267,18.4090909090909,68,0.5,5,5,0,0,1,-0.0132937857429331,-0.13566722218058,-3.34124830393489
"23",3,0.182761092664044,0.119747203423859,0.0695403641922807,0.20508999740414,NA,18.4090909090909,68,0.75,4.5,3,0,1,0,-0.0132937857429331,-0.13566722218058,-3.34124830393489
"24",3,0.158591217061337,0.0514789125189116,0.0436991659180879,0.0987704695411612,NA,18.4090909090909,68,0.75,5,4.5,0,1,1,-0.0132937857429331,-0.13566722218058,-3.34124830393489
"25",4,0.311353814909099,0.147999785171191,0.0812930234696588,0.25800814731374,0.0728385436989114,22.2727272727273,67,0.625,3,2.5,1,0,0,-0.00682734645432373,-0.129200782891971,0.522388059701512
"26",4,0.0756023916379952,0.00227886903113456,-0.00245597135541206,0.0458847362807426,0.0441614457822664,22.2727272727273,67,0.5,4,4,1,0,1,-0.00682734645432373,-0.129200782891971,0.522388059701512
"27",4,0.349074853972646,0.178326698845364,0.11097493807743,0.27458548549251,NA,22.2727272727273,67,0.25,2.5,4,1,1,0,-0.00682734645432373,-0.129200782891971,0.522388059701512
"28",4,0.0341294541693169,0.0157086154366633,0.0114225266996054,0.0274247183040868,NA,22.2727272727273,67,0.5,3,5,1,1,1,-0.00682734645432373,-0.129200782891971,0.522388059701512
"29",4,0.349219163551434,0.154082361506421,0.108457470584828,0.283269463257881,0.0407815077280465,22.2727272727273,67,0.6875,3,2.5,0,0,0,-0.00682734645432373,-0.129200782891971,0.522388059701512
"30",4,0.0701181270509176,0.0443665462462498,0.0263864525360322,0.0628602102827592,0.0191360804521739,22.2727272727273,67,0.5,3,3.5,0,0,1,-0.00682734645432373,-0.129200782891971,0.522388059701512
"31",4,0.224842604200833,0.116887440677244,0.0418341345828287,0.191268689432448,NA,22.2727272727273,67,0.5,3,2.5,0,1,0,-0.00682734645432373,-0.129200782891971,0.522388059701512
"32",4,0.0664206644053842,0.0443877623040431,0.0192284014767605,0.0236843650574123,NA,22.2727272727273,67,0.5,2,4,0,1,1,-0.00682734645432373,-0.129200782891971,0.522388059701512
"33",5,0.356519897043577,0.144544143819168,0.0943671109367927,0.286759887951572,0.0539916716172648,36.3636363636364,67,0.6875,4.5,4,1,0,0,0.192004481558987,0.0696310451213401,14.6132971506106
"34",5,0.250589384165082,0.122235372877197,0.0397062917944413,0.194735027873744,0.0822315325037937,36.3636363636364,67,0.25,5,4.5,1,0,1,0.192004481558987,0.0696310451213401,14.6132971506106
"35",5,0.364436181791783,0.118284918561972,0.0781381819082017,0.287465137609076,NA,36.3636363636364,67,0.75,4,3.5,1,1,0,0.192004481558987,0.0696310451213401,14.6132971506106
"36",5,0.107799354120536,0.0332854778945095,0.0186181937731959,0.0542337027934183,NA,36.3636363636364,67,0.75,4.5,5,1,1,1,0.192004481558987,0.0696310451213401,14.6132971506106
"37",5,0.357677720526241,0.132551573161218,0.106043955800849,0.283139177906306,0.111987678809761,36.3636363636364,67,0.625,5,3.5,0,0,0,0.192004481558987,0.0696310451213401,14.6132971506106
"38",5,0.0618119456331728,0.0213866776776296,0.0144545956565472,0.0525746665873657,0.0553225189269892,36.3636363636364,67,0.5,3,5,0,0,1,0.192004481558987,0.0696310451213401,14.6132971506106
"39",5,0.369231945611648,0.151883242337259,0.106929941188105,0.296314037043126,NA,36.3636363636364,67,0.75,4.5,2,0,1,0,0.192004481558987,0.0696310451213401,14.6132971506106
"40",5,0.123767549180075,0.0588529380185276,0.0400812262914256,0.122525564366633,NA,36.3636363636364,67,0.5,5,5,0,1,1,0.192004481558987,0.0696310451213401,14.6132971506106
"41",6,0.349053575950538,0.158102232429511,0.0976468761630506,0.292207807056268,0.237616985446407,25.6818181818182,66,1,5,1,1,0,0,0.387482823656895,0.265109387219248,3.93147896879242
"42",6,0.293967558633122,0.144277508485405,0.0956944182692886,0.213551417235523,0.250848022456556,25.6818181818182,66,0.5,5,3,1,0,1,0.387482823656895,0.265109387219248,3.93147896879242
"43",6,0.322720162139504,0.153046920645049,0.0923552058902132,0.295206620400182,NA,25.6818181818182,66,1,5,1,1,1,0,0.387482823656895,0.265109387219248,3.93147896879242
"44",6,0.281583359463654,0.108713521457749,0.0432846685786021,0.20575290767939,NA,25.6818181818182,66,0.5,5,2.5,1,1,1,0.387482823656895,0.265109387219248,3.93147896879242
"45",6,0.336744838517635,0.136331690162298,0.0885251963878311,0.285395271444419,0.0945991575847933,25.6818181818182,66,0.625,5,1,0,0,0,0.387482823656895,0.265109387219248,3.93147896879242
"46",6,0.247327215627412,0.109712964005951,0.0359015592482816,0.197309513430675,0.0751897782271549,25.6818181818182,66,0.5,5,4,0,0,1,0.387482823656895,0.265109387219248,3.93147896879242
"47",6,0.407525578548253,0.140365403582972,0.0673595590910516,0.320235502931771,NA,25.6818181818182,66,0.75,5,1.5,0,1,0,0.387482823656895,0.265109387219248,3.93147896879242
"48",6,0.233338163594967,0.102848962221742,0.0549914549464257,0.203925355944641,NA,25.6818181818182,66,0.25,5,4,0,1,1,0.387482823656895,0.265109387219248,3.93147896879242
"49",7,0.32485961598264,0.177905149490637,0.104214814848227,0.331084413719843,0.0215186582355768,28.1818181818182,66,0.8125,4,4,1,0,0,0.0694890939685373,-0.0528843424691096,6.43147896879242
"50",7,0.221604940635783,0.0957555563896812,0.0307635705112736,0.171319722496198,0.0564337100413724,28.1818181818182,66,0.75,5,4.5,1,0,1,0.0694890939685373,-0.0528843424691096,6.43147896879242
"51",7,0.321139929696467,0.18461921247671,0.067333116948705,0.346987505774893,NA,28.1818181818182,66,0.5,4,5,1,1,0,0.0694890939685373,-0.0528843424691096,6.43147896879242
"52",7,0.204034847572045,0.11115432340494,0.0367847963535891,0.236704094342302,NA,28.1818181818182,66,0.75,5,5,1,1,1,0.0694890939685373,-0.0528843424691096,6.43147896879242
"53",7,0.370820407285173,0.184988419112303,0.0834111884179239,0.33983295569713,0.0843753660350093,28.1818181818182,66,0.8125,4.5,3.5,0,0,0,0.0694890939685373,-0.0528843424691096,6.43147896879242
"54",7,0.243928364783977,0.104123729113829,0.0415390598612644,0.190108143719691,0.0488885892838204,28.1818181818182,66,0.75,4,5,0,0,1,0.0694890939685373,-0.0528843424691096,6.43147896879242
"55",7,0.306925650163038,0.139025787309667,0.0717910705669574,0.276150781346612,NA,28.1818181818182,66,1,4.5,4.5,0,1,0,0.0694890939685373,-0.0528843424691096,6.43147896879242
"56",7,0.200212397671041,0.100966987382738,0.0606778603128382,0.170833647345345,NA,28.1818181818182,66,0.75,5,5,0,1,1,0.0694890939685373,-0.0528843424691096,6.43147896879242
"57",8,0.491532610785924,0.245056687519693,0.144195067579562,0.418763676832051,0.0913095338164326,19.5454545454545,66,0.625,2.5,2.5,1,0,0,0.119389886886696,-0.00298354955095094,-2.20488466757129
"58",8,0.318046109854407,0.1380034667854,0.081720586633857,0.252267341400526,0.0914309924994079,19.5454545454545,66,0.75,2.5,2,1,0,1,0.119389886886696,-0.00298354955095094,-2.20488466757129
"59",8,0.386596936892708,0.21819727325659,0.105201897195334,0.373268789447364,NA,19.5454545454545,66,0.25,4,4,1,1,0,0.119389886886696,-0.00298354955095094,-2.20488466757129
"60",8,0.230704777812868,0.108749918493019,0.0471659567693432,0.186008807381846,NA,19.5454545454545,66,0.25,5,4.5,1,1,1,0.119389886886696,-0.00298354955095094,-2.20488466757129
"61",8,0.472033820125197,0.206615514690863,0.141343958381647,0.394432859604139,0.102522045028454,19.5454545454545,66,0.8125,2,2.5,0,0,0,0.119389886886696,-0.00298354955095094,-2.20488466757129
"62",8,0.217172660841612,0.090281853912491,0.0702846483587556,0.169558848568721,0.022841311688296,19.5454545454545,66,0.5,3,5,0,0,1,0.119389886886696,-0.00298354955095094,-2.20488466757129
"63",8,0.458554738599346,0.224982017696463,0.147811202965615,0.35893585842722,NA,19.5454545454545,66,0.75,3,3,0,1,0,0.119389886886696,-0.00298354955095094,-2.20488466757129
"64",8,0.244498694774811,0.114903997462604,0.0580677952056959,0.185404623687807,NA,19.5454545454545,66,0.5,3,2.5,0,1,1,0.119389886886696,-0.00298354955095094,-2.20488466757129
"65",9,0.453820069513213,0.173262751952702,0.140843550518964,0.380624445582816,0.110396817281284,13.1818181818182,66,0.6875,2,2,1,0,0,0.192379361963831,0.0700059255261841,-8.56852103120759
"66",9,0.248488020971785,0.0861580721257181,0.0435194382041211,0.20305368805076,0.0987630075685511,13.1818181818182,66,1,5,5,1,0,1,0.192379361963831,0.0700059255261841,-8.56852103120759
"67",9,0.412336625484064,0.173857190010571,0.119837833607212,0.378345082799234,NA,13.1818181818182,66,0.75,4.5,3,1,1,0,0.192379361963831,0.0700059255261841,-8.56852103120759
"68",9,0.230542990288456,0.0968751700069928,0.08320756427577,0.202686876164925,NA,13.1818181818182,66,0.75,3.5,3.5,1,1,1,0.192379361963831,0.0700059255261841,-8.56852103120759
"69",9,0.434112335678162,0.196668269658696,0.124849415932912,0.368019410978071,0.0886755183333496,13.1818181818182,66,0.75,4,4,0,0,0,0.192379361963831,0.0700059255261841,-8.56852103120759
"70",9,0.270368272413303,0.100548738631871,0.0645880431422247,0.208785408009457,0.00992668089666206,13.1818181818182,66,0.5,4.5,5,0,0,1,0.192379361963831,0.0700059255261841,-8.56852103120759
"71",9,0.41430033536305,0.191686456314918,0.14061882164247,0.393197726659727,NA,13.1818181818182,66,0.75,3.5,4,0,1,0,0.192379361963831,0.0700059255261841,-8.56852103120759
"72",9,0.193545787986504,0.0598083995451258,0.0546467273922462,0.144027098272793,NA,13.1818181818182,66,0.5,5,5,0,1,1,0.192379361963831,0.0700059255261841,-8.56852103120759
"73",10,0.490806408644274,0.178277081268171,0.13250736913912,0.406273461347745,0.132716453391882,25,65,0.6875,3.5,2.5,1,0,0,0.131430900438029,0.00905746400038206,3.24966078697421
"74",10,0.225493698315452,0.116235300765575,0.0874308866691683,0.186523902621822,0.0910092463405583,25,65,0.5,4.5,4,1,0,1,0.131430900438029,0.00905746400038206,3.24966078697421
"75",10,0.427528229541342,0.206006664159932,0.119424799980005,0.384889794016224,NA,25,65,1,3.5,3.5,1,1,0,0.131430900438029,0.00905746400038206,3.24966078697421
"76",10,0.183390769004716,0.0824717542951573,0.0661261101784229,0.150866160463244,NA,25,65,1,5,4.5,1,1,1,0.131430900438029,0.00905746400038206,3.24966078697421
"77",10,0.477364497477844,0.200259635196581,0.135973788713992,0.38852773697661,0.102818409436455,25,65,0.875,3,2.5,0,0,0,0.131430900438029,0.00905746400038206,3.24966078697421
"78",10,0.186477534211413,0.0838375894764526,0.0423074448763155,0.151001475810398,0.0558477187506653,25,65,0.5,4.5,4.5,0,0,1,0.131430900438029,0.00905746400038206,3.24966078697421
"79",10,0.45288280828625,0.127962910031591,0.123687758296185,0.349338629093645,NA,25,65,0.75,2,1.5,0,1,0,0.131430900438029,0.00905746400038206,3.24966078697421
"80",10,0.240912134747736,0.105449617992701,0.0704614689976336,0.192837811556592,NA,25,65,1,5,4.5,0,1,1,0.131430900438029,0.00905746400038206,3.24966078697421
"81",11,0.364045494233239,0.164556685038868,0.0987343158287302,0.255788511589179,0.0692328211002005,35,64,0.625,3.5,3.5,1,0,0,0.0273833232293502,-0.0949901132082967,13.2496607869742
"82",11,0.127236224023196,0.0616007064972268,0.0553840077397967,0.104152009977294,0.0160772379466653,35,64,0.5,4.5,4.5,1,0,1,0.0273833232293502,-0.0949901132082967,13.2496607869742
"83",11,0.186819198679312,0.0580686838678681,0.0515234509910423,0.166946925464169,NA,35,64,0.5,4,4,1,1,0,0.0273833232293502,-0.0949901132082967,13.2496607869742
"84",11,0.113181287318927,0.053394909952683,0.035213546705174,0.09408316638996,NA,35,64,0.75,5,5,1,1,1,0.0273833232293502,-0.0949901132082967,13.2496607869742
"85",11,0.328929283694497,0.127408531723166,0.0769878503348345,0.256038307968386,0.0577560957602217,35,64,0.6875,4,3,0,0,0,0.0273833232293502,-0.0949901132082967,13.2496607869742
"86",11,0.188381276898847,0.0605427604014357,0.0459260727793713,0.175668761252368,0.01149138026102,35,64,0.25,4.5,5,0,0,1,0.0273833232293502,-0.0949901132082967,13.2496607869742
"87",11,0.148811771872359,0.0629884835128082,0.0144492695694667,0.160248931919407,NA,35,64,1,4,4,0,1,0,0.0273833232293502,-0.0949901132082967,13.2496607869742
"88",11,0.131775762682252,0.0377823820761863,0.00434759294578293,0.099419556593565,NA,35,64,0.25,5,5,0,1,1,0.0273833232293502,-0.0949901132082967,13.2496607869742
"89",12,0.496769266932718,0.226294024827639,0.155848537623289,0.434464347626812,0.101718117013291,8.63636363636364,64,0.6875,3.5,3,1,0,0,0.192338382040853,0.0699649456032061,-13.1139755766621
"90",12,0.2774543680877,0.120362671679747,0.0757714698412747,0.240383121425777,0.0580024712210056,8.63636363636364,64,0.5,4,3.5,1,0,1,0.192338382040853,0.0699649456032061,-13.1139755766621
"91",12,0.480400581912117,0.232052278004068,0.172120725174305,0.428980993139731,NA,8.63636363636364,64,0.75,3,3,1,1,0,0.192338382040853,0.0699649456032061,-13.1139755766621
"92",12,0.266371762639822,0.12088607480601,0.065423314364144,0.232451788863511,NA,8.63636363636364,64,0.75,3.5,3.5,1,1,1,0.192338382040853,0.0699649456032061,-13.1139755766621
"93",12,0.466437097669028,0.20618067436979,0.155752110214593,0.393386985984057,0.0712640086506798,8.63636363636364,64,0.875,3,3,0,0,0,0.192338382040853,0.0699649456032061,-13.1139755766621
"94",12,0.230007835551979,0.0963511176420337,0.0522739725326641,0.213185809035796,0.010210582556546,8.63636363636364,64,0.75,4,4,0,0,1,0.192338382040853,0.0699649456032061,-13.1139755766621
"95",12,0.445963863146651,0.183954611017813,0.149909688493907,0.385184562296299,NA,8.63636363636364,64,1,3,3,0,1,0,0.192338382040853,0.0699649456032061,-13.1139755766621
"96",12,0.271964478076555,0.111882196085831,0.0720604771152137,0.228941960614176,NA,8.63636363636364,64,0.5,4,3,0,1,1,0.192338382040853,0.0699649456032061,-13.1139755766621
"97",13,0.444445405003645,0.226028921210649,0.150028608785219,0.36978128979712,0.0558704713587477,10,64,0.8125,5,4,1,0,0,0.112401125130558,-0.00997231130708894,-11.7503392130258
"98",13,0.289006904129769,0.137742459674417,0.0818451054479795,0.222998729721572,0.0813373680792428,10,64,0.75,5,5,1,0,1,0.112401125130558,-0.00997231130708894,-11.7503392130258
"99",13,0.441061315190133,0.234756217064516,0.15510627177682,0.36872731899451,NA,10,64,0.25,5,4,1,1,0,0.112401125130558,-0.00997231130708894,-11.7503392130258
"100",13,0.22653949938495,0.113388071766827,0.0774131033106788,0.19600434110499,NA,10,64,1,5,5,1,1,1,0.112401125130558,-0.00997231130708894,-11.7503392130258
"101",13,0.459159481359263,0.2309276659137,0.144772198095646,0.399586034334692,0.0625444503938447,10,64,0.875,5,4,0,0,0,0.112401125130558,-0.00997231130708894,-11.7503392130258
"102",13,0.191004013354543,0.108120082880574,0.0856566282416488,0.177692753431425,0.0322784315325165,10,64,0.5,5,5,0,0,1,0.112401125130558,-0.00997231130708894,-11.7503392130258
"103",13,0.499324304482387,0.2358990682412,0.167764879545112,0.427686254224689,NA,10,64,1,5,3.5,0,1,0,0.112401125130558,-0.00997231130708894,-11.7503392130258
"104",13,0.198376971091011,0.0824584300525659,0.0609357014332392,0.202873689597013,NA,10,64,0.75,5,5,0,1,1,0.112401125130558,-0.00997231130708894,-11.7503392130258
"105",14,0.337012723570197,0.180635765715713,0.0991047076813142,0.275717078780383,0.023158103506849,15.2272727272727,64,0.875,4.5,3.5,1,0,0,0.0811058809438537,-0.0412675554937932,-6.52306648575309
"106",14,0.206464937608821,0.0674967990194814,0.0387371975658698,0.154691473227829,-0.0123579175203101,15.2272727272727,64,1,5,5,1,0,1,0.0811058809438537,-0.0412675554937932,-6.52306648575309
"107",14,0.0567123308815971,0.0215891055973513,0.0120241693931092,0.0549063036767212,NA,15.2272727272727,64,0.5,5,4,1,1,0,0.0811058809438537,-0.0412675554937932,-6.52306648575309
"108",14,-0.00504138665433803,0.00294759860031979,0.000949873610543769,-0.0157535297386813,NA,15.2272727272727,64,0.5,5,5,1,1,1,0.0811058809438537,-0.0412675554937932,-6.52306648575309
"109",14,0.389057371359972,0.193716692964757,0.108829452733226,0.324661223208132,0.116807831780865,15.2272727272727,64,0.75,4,2.5,0,0,0,0.0811058809438537,-0.0412675554937932,-6.52306648575309
"110",14,0.210997047802026,0.104234404671036,0.0599160865575959,0.217681015824744,0.0289881878331556,15.2272727272727,64,0.75,5,5,0,0,1,0.0811058809438537,-0.0412675554937932,-6.52306648575309
"111",14,0.409009908922682,0.238889361821088,0.132767484922559,0.36883991373725,NA,15.2272727272727,64,0.75,4,4,0,1,0,0.0811058809438537,-0.0412675554937932,-6.52306648575309
"112",14,0.00458090779019267,0.0119608831856467,0.00963827611185934,0.00674350959049287,NA,15.2272727272727,64,0.75,4,5,0,1,1,0.0811058809438537,-0.0412675554937932,-6.52306648575309
"113",15,0.312123368036494,0.158157996721708,0.0897347382512721,0.269773221271204,0.0345994876343182,21.3636363636364,64,0.75,5,4.5,1,0,0,0.198577925938357,0.0762044895007101,-0.386702849389387
"114",15,0.119363229233464,0.0453481067356667,0.0331280962415001,0.104553678714796,-0.0113468654157835,21.3636363636364,64,1,5,5,1,0,1,0.198577925938357,0.0762044895007101,-0.386702849389387
"115",15,0.347593085616749,0.168535467487346,0.0943274803459662,0.309918495123122,NA,21.3636363636364,64,1,5,5,1,1,0,0.198577925938357,0.0762044895007101,-0.386702849389387
"116",15,0.141478047628838,0.085756880290244,0.0368588665933843,0.0793886094366753,NA,21.3636363636364,64,0.5,5,5,1,1,1,0.198577925938357,0.0762044895007101,-0.386702849389387
"117",15,0.254147786399312,0.131356058784807,0.0873305095177233,0.233038929106898,0.0391916483591148,21.3636363636364,64,0.875,5,5,0,0,0,0.198577925938357,0.0762044895007101,-0.386702849389387
"118",15,0.0825591707679828,0.0423083601744247,0.0225269278358965,0.0188963692802291,-0.00625457389321381,21.3636363636364,64,0.25,4.5,5,0,0,1,0.198577925938357,0.0762044895007101,-0.386702849389387
"119",15,0.357073610139788,0.194550453955656,0.126830102792387,0.304944531300077,NA,21.3636363636364,64,1,4,4.5,0,1,0,0.198577925938357,0.0762044895007101,-0.386702849389387
"120",15,0.0330481967750495,0.0210155871697468,0.0140206758514704,0.0302217677774475,NA,21.3636363636364,64,0.75,5,5,0,1,1,0.198577925938357,0.0762044895007101,-0.386702849389387
"121",16,0.496394725460832,0.234559993307367,0.137559794894533,0.438139229491351,0.090180715548634,14.5454545454545,64,0.8125,5,2.5,1,0,0,-0.00021289652335659,-0.122586332961004,-7.20488466757129
"122",16,0.276253668685888,0.12405917600119,0.0911219926494592,0.253465259326967,0.00435601646242527,14.5454545454545,64,0.5,5,4.5,1,0,1,-0.00021289652335659,-0.122586332961004,-7.20488466757129
"123",16,0.483110524951377,0.222451929232322,0.159065129388792,0.420348217632964,NA,14.5454545454545,64,1,4.5,2.5,1,1,0,-0.00021289652335659,-0.122586332961004,-7.20488466757129
"124",16,0.319415797594873,0.153842244819977,0.0764705010021776,0.283158158152564,NA,14.5454545454545,64,1,5,4.5,1,1,1,-0.00021289652335659,-0.122586332961004,-7.20488466757129
"125",16,0.464444004829598,0.212385536643544,0.143517680614429,0.396501764658392,0.144369794987351,14.5454545454545,64,0.6875,5,2,0,0,0,-0.00021289652335659,-0.122586332961004,-7.20488466757129
"126",16,0.236792260368869,0.130701819230689,0.0517594458191074,0.195665311338299,0.0522808863257605,14.5454545454545,64,0.75,5,5,0,0,1,-0.00021289652335659,-0.122586332961004,-7.20488466757129
"127",16,0.424083512288516,0.207564077377352,0.126440632277237,0.377177492849065,NA,14.5454545454545,64,0.25,4.5,3,0,1,0,-0.00021289652335659,-0.122586332961004,-7.20488466757129
"128",16,0.23195106488599,0.0910527621878941,0.0619784239161461,0.201245416542747,NA,14.5454545454545,64,0.25,5,5,0,1,1,-0.00021289652335659,-0.122586332961004,-7.20488466757129
"129",17,0.447157221298948,0.190402182668716,0.151559447370903,0.375644442644291,0.212506584905269,26.1363636363636,63,0.625,5,2,1,0,0,0.0326557421613092,-0.0897176942763377,4.38602442333782
"130",17,0.100268650431522,0.0460101632599026,0.0409387740748707,0.0492237976678978,0.104142920886713,26.1363636363636,63,0.75,2,3,1,0,1,0.0326557421613092,-0.0897176942763377,4.38602442333782
"131",17,0.465544610002126,0.232888744450356,0.161166632354725,0.417434457125566,NA,26.1363636363636,63,0.5,4.5,4,1,1,0,0.0326557421613092,-0.0897176942763377,4.38602442333782
"132",17,0.0873043220869912,0.0386210934625199,0.0475918746501361,0.0568588115652373,NA,26.1363636363636,63,0.5,3.5,5,1,1,1,0.0326557421613092,-0.0897176942763377,4.38602442333782
"133",17,0.45061138199827,0.18737963443333,0.142850038020931,0.361322066109683,0.102462902678274,26.1363636363636,63,0.625,5,3,0,0,0,0.0326557421613092,-0.0897176942763377,4.38602442333782
"134",17,0.150094495352112,0.0478442160225153,0.0388004098845791,0.106984011015289,-0.00515186287237204,26.1363636363636,63,0,3,4,0,0,1,0.0326557421613092,-0.0897176942763377,4.38602442333782
"135",17,0.302659425760895,0.147332303324574,0.100928773488517,0.24618247912938,NA,26.1363636363636,63,0.75,4.5,4,0,1,0,0.0326557421613092,-0.0897176942763377,4.38602442333782
"136",17,0.143375110264218,0.023720721589536,0.0217327477218682,0.0909081383545687,NA,26.1363636363636,63,0.75,4,5,0,1,1,0.0326557421613092,-0.0897176942763377,4.38602442333782
"137",18,0.399356701313647,0.182485774752905,0.111103872361789,0.331029439808394,0.0865213374205907,25.2272727272727,63,0.875,4.5,3,1,0,0,0.157914867357446,0.0355414309197991,3.47693351424692
"138",18,0.198240415798975,0.12003431052267,0.064968878536306,0.1512523338541,0.0494392374749787,25.2272727272727,63,0.5,5,5,1,0,1,0.157914867357446,0.0355414309197991,3.47693351424692
"139",18,0.416680335161142,0.179730807313678,0.117189406390739,0.363288352984359,NA,25.2272727272727,63,0.75,3.5,2.5,1,1,0,0.157914867357446,0.0355414309197991,3.47693351424692
"140",18,0.101529818596958,0.062827637584998,0.0538161937943778,0.0788561588908741,NA,25.2272727272727,63,0.5,5,5,1,1,1,0.157914867357446,0.0355414309197991,3.47693351424692
"141",18,0.438711487768821,0.200582908707496,0.123448098335062,0.370745318853906,0.0873756784422601,25.2272727272727,63,0.9375,4.5,2.5,0,0,0,0.157914867357446,0.0355414309197991,3.47693351424692
"142",18,0.111924782175009,0.0802797258956653,0.0427120962459272,0.0717122328948643,0.0397550487745988,25.2272727272727,63,0.25,5,5,0,0,1,0.157914867357446,0.0355414309197991,3.47693351424692
"143",18,0.399489961911062,0.181794201032452,0.10130363791814,0.3430166296893,NA,25.2272727272727,63,1,5,3.5,0,1,0,0.157914867357446,0.0355414309197991,3.47693351424692
"144",18,0.174156877861373,0.0755919317117993,0.0328996749870894,0.163107165791914,NA,25.2272727272727,63,0.75,5,4.5,0,1,1,0.157914867357446,0.0355414309197991,3.47693351424692
"145",19,0.431398506751357,0.210223670510107,0.159255908548839,0.369968857223956,0.15964599876547,16.3636363636364,63,0.75,5,2,1,0,0,0.0904649161468137,-0.0319085202908332,-5.38670284938939
"146",19,0.176915328309566,0.0795317823302258,0.0429078011703526,0.129215667989232,0.0822133253556702,16.3636363636364,63,0.5,5,2.5,1,0,1,0.0904649161468137,-0.0319085202908332,-5.38670284938939
"147",19,0.412223508674778,0.164492713855665,0.139884411287748,0.352388723652754,NA,16.3636363636364,63,1,4.5,1.5,1,1,0,0.0904649161468137,-0.0319085202908332,-5.38670284938939
"148",19,0.160533416622165,0.0883495906503714,0.0547606494313777,0.162848664783574,NA,16.3636363636364,63,0.5,5,5,1,1,1,0.0904649161468137,-0.0319085202908332,-5.38670284938939
"149",19,0.429508175980596,0.197599500496793,0.159613634549316,0.356320597575318,0.105502212037213,16.3636363636364,63,0.75,5,1.5,0,0,0,0.0904649161468137,-0.0319085202908332,-5.38670284938939
"150",19,0.15328741767616,0.075115435213197,0.0691296180835138,0.0993229621130723,0.0470909634505585,16.3636363636364,63,0.5,5,5,0,0,1,0.0904649161468137,-0.0319085202908332,-5.38670284938939
"151",19,0.434570501670117,0.228993651671902,0.183254676394023,0.385146228970384,NA,16.3636363636364,63,0.5,4,1,0,1,0,0.0904649161468137,-0.0319085202908332,-5.38670284938939
"152",19,0.167171867884131,0.0669768152601928,0.0332772635142738,0.139096087221809,NA,16.3636363636364,63,0.25,3.5,4.5,0,1,1,0.0904649161468137,-0.0319085202908332,-5.38670284938939
"153",20,0.301395004386506,0.159934748884555,0.114466182148081,0.290516181659039,0.123612042270794,20.2272727272727,63,0.6875,3,2.5,1,0,0,0.165500691636572,0.0431272551989251,-1.52306648575308
"154",20,0.161127425404107,0.0745130806986976,0.050118118958754,0.157568699481358,0.150471706187868,20.2272727272727,63,0.75,3.5,5,1,0,1,0.165500691636572,0.0431272551989251,-1.52306648575308
"155",20,0.311050994814633,0.173303624986482,0.0851782232243074,0.32876930956615,NA,20.2272727272727,63,1,3,2.5,1,1,0,0.165500691636572,0.0431272551989251,-1.52306648575308
"156",20,0.154881018801947,0.113259580936604,0.0697216399864523,0.176575646337915,NA,20.2272727272727,63,0.5,3,4.5,1,1,1,0.165500691636572,0.0431272551989251,-1.52306648575308
"157",20,0.377168992774522,0.171565005063686,0.11727983820781,0.302764442972182,0.0451198090514958,20.2272727272727,63,0.8125,3.5,2.5,0,0,0,0.165500691636572,0.0431272551989251,-1.52306648575308
"158",20,0.192806223184458,0.110969012116997,0.0348368676831617,0.163015391130969,0.0703806910806773,20.2272727272727,63,0.25,3.5,5,0,0,1,0.165500691636572,0.0431272551989251,-1.52306648575308
"159",20,0.336368251147109,0.195966796141846,0.100260296069943,0.296446303657012,NA,20.2272727272727,63,0.75,2.5,3,0,1,0,0.165500691636572,0.0431272551989251,-1.52306648575308
"160",20,0.205042747783871,0.128833944139056,0.0448647245676992,0.136356972757637,NA,20.2272727272727,63,0.75,3.5,4.5,0,1,1,0.165500691636572,0.0431272551989251,-1.52306648575308
"161",21,0.553823345199506,0.248215043404812,0.161002692616933,0.464237006649043,0.0844115894120505,30,63,0.8125,4,2,1,0,0,0.171800228533813,0.0494267920961661,8.24966078697421
"162",21,0.347038328061732,0.14645916331758,0.0918187074469597,0.270182474979777,0.0893645686007122,30,63,0.75,4.5,2,1,0,1,0.171800228533813,0.0494267920961661,8.24966078697421
"163",21,0.512805360566876,0.252492982481043,0.176006120177249,0.470464581665885,NA,30,63,1,4.5,2,1,1,0,0.171800228533813,0.0494267920961661,8.24966078697421
"164",21,0.359950403939941,0.124842961437926,0.0887878929310403,0.271789343888272,NA,30,63,0.5,4.5,3,1,1,1,0.171800228533813,0.0494267920961661,8.24966078697421
"165",21,0.523348007115674,0.23928652594398,0.169351872276039,0.433016159690716,0.123512703596559,30,63,0.875,4.5,2,0,0,0,0.171800228533813,0.0494267920961661,8.24966078697421
"166",21,0.311159372856881,0.141660701554437,0.0650594784936985,0.230930128360696,0.00907279542405064,30,63,0.75,4,3,0,0,1,0.171800228533813,0.0494267920961661,8.24966078697421
"167",21,0.549500115044747,0.268331594499927,0.15772331206694,0.501244783157754,NA,30,63,0.5,4,2,0,1,0,0.171800228533813,0.0494267920961661,8.24966078697421
"168",21,0.261473989795454,0.109176084408779,0.0482190625259352,0.233678299199544,NA,30,63,0.5,4,3,0,1,1,0.171800228533813,0.0494267920961661,8.24966078697421
"169",22,0.379440158337899,0.178829391642873,0.107495228150642,0.32012434603848,0.193631851703861,17.7272727272727,63,0.75,5,4,1,0,0,0.124153352542316,0.00177991610466907,-4.02306648575308
"170",22,0.249686238301675,0.0950839416854413,0.0436106696120173,0.212219119094576,0.207253737802669,17.7272727272727,63,0.75,5,4,1,0,1,0.124153352542316,0.00177991610466907,-4.02306648575308
"171",22,0.336660080805182,0.167110074835358,0.0924671169422694,0.273748668079603,NA,17.7272727272727,63,1,4.5,3.5,1,1,0,0.124153352542316,0.00177991610466907,-4.02306648575308
"172",22,0.166490823752877,0.101547999808363,0.0369469853364862,0.154870862523846,NA,17.7272727272727,63,0.25,4,5,1,1,1,0.124153352542316,0.00177991610466907,-4.02306648575308
"173",22,0.330102897007165,0.143664770292802,0.0840836998074192,0.276195136537125,0.10017523299322,17.7272727272727,63,0.875,5,4,0,0,0,0.124153352542316,0.00177991610466907,-4.02306648575308
"174",22,0.173498676333297,0.063205905688887,0.0408572731588479,0.107993998184403,0.0388250739585567,17.7272727272727,63,0.75,5,5,0,0,1,0.124153352542316,0.00177991610466907,-4.02306648575308
"175",22,0.34800301309378,0.139167791458416,0.0987278425280754,0.329607795149461,NA,17.7272727272727,63,0.75,5,4,0,1,0,0.124153352542316,0.00177991610466907,-4.02306648575308
"176",22,0.148708800029966,0.0794715096505947,0.0424016372071415,0.133182152635058,NA,17.7272727272727,63,0.5,5,4.5,0,1,1,0.124153352542316,0.00177991610466907,-4.02306648575308
"177",23,0.635247679178208,0.261710754247175,0.181773009032137,0.524357011470811,0.185730619863681,20.9090909090909,63,0.875,5,3,1,0,0,0.203548889159538,0.0811754527218911,-0.841248303934886
"178",23,0.348459298234563,0.137261055033111,0.0890764235709727,0.273401669418653,0.117587746119127,20.9090909090909,63,0.5,5,4.5,1,0,1,0.203548889159538,0.0811754527218911,-0.841248303934886
"179",23,0.586187813731183,0.226813587378756,0.164521454813328,0.521263733312559,NA,20.9090909090909,63,0.75,4,3,1,1,0,0.203548889159538,0.0811754527218911,-0.841248303934886
"180",23,0.287237378654627,0.0918770787430684,0.0544725901870344,0.250771445374749,NA,20.9090909090909,63,0.25,5,5,1,1,1,0.203548889159538,0.0811754527218911,-0.841248303934886
"181",23,0.649720178883215,0.265005968825093,0.187609741907665,0.540322465667309,0.144228227267554,20.9090909090909,63,0.9375,5,2,0,0,0,0.203548889159538,0.0811754527218911,-0.841248303934886
"182",23,0.2369318954274,0.0816239062762503,0.0557632228232216,0.173230134072023,0.101715869724171,20.9090909090909,63,0.25,5,5,0,0,1,0.203548889159538,0.0811754527218911,-0.841248303934886
"183",23,0.600280023629854,0.234485662860729,0.161700010939465,0.499441948084478,NA,20.9090909090909,63,0.75,5,4,0,1,0,0.203548889159538,0.0811754527218911,-0.841248303934886
"184",23,0.303713869079715,0.125212770085431,0.064147978595064,0.25512227158048,NA,20.9090909090909,63,0.5,5,5,0,1,1,0.203548889159538,0.0811754527218911,-0.841248303934886
"185",24,0.429364416947464,0.199996871817879,0.126300998834576,0.35098697032259,0.146651911529817,19.0909090909091,62,0.75,5,4,1,0,0,0.124164541557886,0.00179110512023907,-2.65943012211669
"186",24,0.343506191001672,0.155861362364913,0.071983002816194,0.290727795240594,0.196484779756387,19.0909090909091,62,0.5,5,5,1,0,1,0.124164541557886,0.00179110512023907,-2.65943012211669
"187",24,0.430176046129379,0.187363681305067,0.119798230358228,0.364383587666701,NA,19.0909090909091,62,1,5,4,1,1,0,0.124164541557886,0.00179110512023907,-2.65943012211669
"188",24,0.305718912877319,0.17765828411454,0.0577435106293619,0.249299718491037,NA,19.0909090909091,62,0.5,5,5,1,1,1,0.124164541557886,0.00179110512023907,-2.65943012211669
"189",24,0.394112818854363,0.205197883045584,0.113391670173264,0.336464161799614,0.0451736545716951,19.0909090909091,62,0.6875,5,4,0,0,0,0.124164541557886,0.00179110512023907,-2.65943012211669
"190",24,0.203886309140133,0.0957428338688106,0.0649230805721082,0.15137576286604,0.0964989755656323,19.0909090909091,62,0.75,5,5,0,0,1,0.124164541557886,0.00179110512023907,-2.65943012211669
"191",24,0.441271688849815,0.229998442331837,0.130516029495969,0.376770707461873,NA,19.0909090909091,62,1,5,3,0,1,0,0.124164541557886,0.00179110512023907,-2.65943012211669
"192",24,0.276667979072691,0.118857303883274,0.0669450200857138,0.235855325965308,NA,19.0909090909091,62,0.75,4.5,5,0,1,1,0.124164541557886,0.00179110512023907,-2.65943012211669
"193",25,0.385897815195777,0.169830255308869,0.114032375033422,0.323721622342379,0.0976053138022814,16.1363636363636,62,0.75,3,3.5,1,0,0,0.0510599875530196,-0.0713134488846273,-5.61397557666218
"194",25,0.210128146569515,0.116527402010175,0.0752506732151696,0.196657424543455,0.0336834754788956,16.1363636363636,62,1,3,5,1,0,1,0.0510599875530196,-0.0713134488846273,-5.61397557666218
"195",25,0.407583320429957,0.195540979706437,0.101571751851993,0.362257606067043,NA,16.1363636363636,62,0.5,3,5,1,1,0,0.0510599875530196,-0.0713134488846273,-5.61397557666218
"196",25,0.151914423715122,0.078855068131429,0.0326134619072492,0.112754946997642,NA,16.1363636363636,62,0.5,3.5,5,1,1,1,0.0510599875530196,-0.0713134488846273,-5.61397557666218
"197",25,0.384547178843335,0.167970412901109,0.113941112542151,0.312449017767196,0.104215735816854,16.1363636363636,62,0.3125,1.5,5,0,0,0,0.0510599875530196,-0.0713134488846273,-5.61397557666218
"198",25,0.0824669557401105,0.0503380839622537,0.0216087489323148,0.0733871806887692,-0.0390475110719328,16.1363636363636,62,0,3,5,0,0,1,0.0510599875530196,-0.0713134488846273,-5.61397557666218
"199",25,0.381968378574646,0.178585404181287,0.117784593818966,0.333152512305792,NA,16.1363636363636,62,0.25,3,4.5,0,1,0,0.0510599875530196,-0.0713134488846273,-5.61397557666218
"200",25,0.12072952245026,0.0587661205993947,0.0139430649978151,0.103296456909386,NA,16.1363636363636,62,0.5,3,5,0,1,1,0.0510599875530196,-0.0713134488846273,-5.61397557666218
"201",26,0.420765532224685,0.184996714916583,0.112701242254099,0.361131619950084,0.137478406833836,14.0909090909091,62,0.8125,3,2.5,1,0,0,0.167650002529216,0.0452765660915691,-7.65943012211669
"202",26,0.226744077916492,0.127116101644315,0.0293869633219951,0.208870724894831,0.139042225570795,14.0909090909091,62,0.75,4.5,3.5,1,0,1,0.167650002529216,0.0452765660915691,-7.65943012211669
"203",26,0.0192276933417091,-0.0101071890046437,0.00503352477571606,0.0160688054723509,NA,14.0909090909091,62,0.75,3.5,3,1,1,0,0.167650002529216,0.0452765660915691,-7.65943012211669
"204",26,0.152021209364983,0.0801914329187605,0.040024943605424,0.140609038474667,NA,14.0909090909091,62,1,4,3,1,1,1,0.167650002529216,0.0452765660915691,-7.65943012211669
"205",26,0.300495630046321,0.125887094869759,0.0888373757454334,0.245159140516849,0.0236692091499433,14.0909090909091,62,0.6875,4,3.5,0,0,0,0.167650002529216,0.0452765660915691,-7.65943012211669
"206",26,0.176204439753577,0.0784205779373048,0.0192149615368771,0.148759224327684,0.0362117377945686,14.0909090909091,62,0.25,3.5,3,0,0,1,0.167650002529216,0.0452765660915691,-7.65943012211669
"207",26,0.324761755602624,0.119705002795719,0.098125369449553,0.253430925104157,NA,14.0909090909091,62,1,4.5,4,0,1,0,0.167650002529216,0.0452765660915691,-7.65943012211669
"208",26,0.119592858675783,0.0477551900347601,0.0242751284507032,0.0896895489971885,NA,14.0909090909091,62,0.75,3,3,0,1,1,0.167650002529216,0.0452765660915691,-7.65943012211669
"209",27,0.534352334812479,0.244661380820285,0.158947335532077,0.448590636446711,0.170709755000901,15.4545454545455,62,0.75,5,1,1,0,0,0.267542644985472,0.145169208547825,-6.29579375848029
"210",27,0.274869160398182,0.146062882837362,0.0981804794115138,0.250396975434289,0.131516803867134,15.4545454545455,62,0.25,5,1,1,0,1,0.267542644985472,0.145169208547825,-6.29579375848029
"211",27,0.560582084980116,0.281692022683423,0.157828980967652,0.476226368637156,NA,15.4545454545455,62,0.75,4.5,1,1,1,0,0.267542644985472,0.145169208547825,-6.29579375848029
"212",27,0.270714779336322,0.141236590704406,0.0577203548139117,0.227746716510165,NA,15.4545454545455,62,0.5,5,1,1,1,1,0.267542644985472,0.145169208547825,-6.29579375848029
"213",27,0.51730843474946,0.267631294270008,0.162000091430153,0.452388801341965,0.134015999125304,15.4545454545455,62,0.8125,5,1,0,0,0,0.267542644985472,0.145169208547825,-6.29579375848029
"214",27,0.24418651344924,0.0997656805571283,0.055570347636882,0.198113843837486,0.0691827460989917,15.4545454545455,62,0.5,5,1,0,0,1,0.267542644985472,0.145169208547825,-6.29579375848029
"215",27,0.547418809505994,0.279907142673972,0.164248001663415,0.489182925296705,NA,15.4545454545455,62,0.5,5,1,0,1,0,0.267542644985472,0.145169208547825,-6.29579375848029
"216",27,0.281351537079037,0.117575958848864,0.0454658652279859,0.251123128567793,NA,15.4545454545455,62,1,4.5,1,0,1,1,0.267542644985472,0.145169208547825,-6.29579375848029
"217",28,0.380795063646176,0.178268378987359,0.102600099341836,0.328776137065602,0.118569999359791,19.0909090909091,62,0.6875,4.5,4.5,1,0,0,0.0375740908916802,-0.0847993455459667,-2.65943012211669
"218",28,0.281120981941337,0.137004718019394,0.0626266749910508,0.213363151140645,0.143594744795343,19.0909090909091,62,0.5,4.5,4.5,1,0,1,0.0375740908916802,-0.0847993455459667,-2.65943012211669
"219",28,0.39152646703689,0.178885916297398,0.090488813699258,0.331672118572165,NA,19.0909090909091,62,1,4.5,3,1,1,0,0.0375740908916802,-0.0847993455459667,-2.65943012211669
"220",28,0.219127681332777,0.0945295593646253,0.0377859616688732,0.213935534699007,NA,19.0909090909091,62,0,5,5,1,1,1,0.0375740908916802,-0.0847993455459667,-2.65943012211669
"221",28,0.411953687054919,0.175658625647291,0.10754610396479,0.333503442476119,0.100208403237614,19.0909090909091,62,0.6875,3.5,3,0,0,0,0.0375740908916802,-0.0847993455459667,-2.65943012211669
"222",28,0.158859791556865,0.0644632060167304,0.0361029758641159,0.141882502307457,0.0595710231912083,19.0909090909091,62,0.75,4.5,5,0,0,1,0.0375740908916802,-0.0847993455459667,-2.65943012211669
"223",28,0.405570441154497,0.185357863201344,0.113779754162812,0.318116934789786,NA,19.0909090909091,62,0.5,3,3,0,1,0,0.0375740908916802,-0.0847993455459667,-2.65943012211669
"224",28,0.216314341381071,0.10888640339801,0.057896670524677,0.201160615305584,NA,19.0909090909091,62,0.5,5,4.5,0,1,1,0.0375740908916802,-0.0847993455459667,-2.65943012211669
"225",29,0.553978630971382,0.238774606046635,0.168256274537982,0.468237338177462,0.0849640636469361,23.1818181818182,62,0.875,4.5,3,1,0,0,0.108804649326829,-0.0135687871108179,1.43147896879242
"226",29,0.268035729987427,0.13604934187772,0.0605206628037053,0.237607594267717,0.138659911126707,23.1818181818182,62,0.5,2,5,1,0,1,0.108804649326829,-0.0135687871108179,1.43147896879242
"227",29,0.545545714212489,0.237648332148613,0.157764722258257,0.484398700021587,NA,23.1818181818182,62,0.5,2.5,5,1,1,0,0.108804649326829,-0.0135687871108179,1.43147896879242
"228",29,0.264584983918327,0.108066214578009,0.0513116671780657,0.202288502431921,NA,23.1818181818182,62,0.25,2,5,1,1,1,0.108804649326829,-0.0135687871108179,1.43147896879242
"229",29,0.548452943970496,0.247831494367116,0.177816397133875,0.471635930912904,0.112040743855391,23.1818181818182,62,0.5625,4,3.5,0,0,0,0.108804649326829,-0.0135687871108179,1.43147896879242
"230",29,0.255637492672365,0.142314928771893,0.0592836029268103,0.226155235399998,0.134947749392237,23.1818181818182,62,0.75,2,5,0,0,1,0.108804649326829,-0.0135687871108179,1.43147896879242
"231",29,0.192819943163809,0.137404274637217,0.156325198402457,0.293337404676829,NA,23.1818181818182,62,0.5,4.5,5,0,1,0,0.108804649326829,-0.0135687871108179,1.43147896879242
"232",29,0.208161533502875,0.105857040894619,0.0139696460815323,0.181676624557357,NA,23.1818181818182,62,0.5,3.5,5,0,1,1,0.108804649326829,-0.0135687871108179,1.43147896879242
"233",30,0.391976870106174,0.187432870782035,0.107994784581484,0.311368802552793,0.153388038667057,40.4545454545455,61,0.625,3,2,1,0,0,0.116547419372019,-0.00582601706562794,18.7042062415197
"234",30,0.0209557727669944,0.0382619107182719,0.00585860800140775,0.0137394891689273,0.040921784552356,40.4545454545455,61,0.25,4.5,4,1,0,1,0.116547419372019,-0.00582601706562794,18.7042062415197
"235",30,0.228628968569072,0.105403885352864,0.0637390463043731,0.161278429238788,NA,40.4545454545455,61,0.5,5,2.5,1,1,0,0.116547419372019,-0.00582601706562794,18.7042062415197
"236",30,0.0693741568032101,0.0405700123465456,-0.00324524326233919,0.0393813474558764,NA,40.4545454545455,61,0.25,5,5,1,1,1,0.116547419372019,-0.00582601706562794,18.7042062415197
"237",30,0.326045619856974,0.167542914096461,0.0849900121008437,0.275006540998398,-0.00561378128564439,40.4545454545455,61,0.875,3,2,0,0,0,0.116547419372019,-0.00582601706562794,18.7042062415197
"238",30,0.105061673828203,0.0581935612228514,0.0257655740284082,0.0966241530017799,-0.00468441391010524,40.4545454545455,61,0.5,5,5,0,0,1,0.116547419372019,-0.00582601706562794,18.7042062415197
"239",30,0.285450877914602,0.178014272216918,0.1134872182233,0.229849315409617,NA,40.4545454545455,61,1,5,1.5,0,1,0,0.116547419372019,-0.00582601706562794,18.7042062415197
"240",30,0.0924594863395379,0.0388720352953645,0.0337107898262609,0.0489729005471305,NA,40.4545454545455,61,0.5,5,5,0,1,1,0.116547419372019,-0.00582601706562794,18.7042062415197
"241",31,0.484753575204695,0.196298153847624,0.138109241553583,0.379821265615412,0.159214071311559,44.3181818181818,61,0.8125,4,3,1,0,0,0.0956359774761902,-0.0267374589614567,22.567842605156
"242",31,0.236891934256039,0.117241487888503,0.0874816462915798,0.190288674504932,0.159166012435859,44.3181818181818,61,0.75,5,4,1,0,1,0.0956359774761902,-0.0267374589614567,22.567842605156
"243",31,0.394398361738912,0.17944561238146,0.120404952796982,0.313570388673264,NA,44.3181818181818,61,0.75,3.5,3.5,1,1,0,0.0956359774761902,-0.0267374589614567,22.567842605156
"244",31,0.161804101391584,0.0774757926192007,0.0380497809233298,0.122160713381727,NA,44.3181818181818,61,0.5,4.5,5,1,1,1,0.0956359774761902,-0.0267374589614567,22.567842605156
"245",31,0.404973585607023,0.161473662418788,0.110233115365347,0.320273899713605,-0.012369647245131,44.3181818181818,61,1,4,3,0,0,0,0.0956359774761902,-0.0267374589614567,22.567842605156
"246",31,0.214183230415495,0.103390164848037,0.0534831131770892,0.194401088891157,0.0826422874171395,44.3181818181818,61,0.5,2.5,5,0,0,1,0.0956359774761902,-0.0267374589614567,22.567842605156
"247",31,0.417787501384339,0.14004487839082,0.118451148007636,0.315338338137062,NA,44.3181818181818,61,1,4.5,3,0,1,0,0.0956359774761902,-0.0267374589614567,22.567842605156
"248",31,0.197212465116202,0.0853722521215105,0.0332444359754905,0.163316020185278,NA,44.3181818181818,61,0.25,5,5,0,1,1,0.0956359774761902,-0.0267374589614567,22.567842605156
"249",32,0.489402821850365,0.230714855475214,0.155707767120943,0.415542026292393,0.0547090112388879,26.3636363636364,61,0.875,4.5,1,1,0,0,0.223682865891363,0.101309429453716,4.61329715061061
"250",32,0.286795194937964,0.150260011255519,0.065586748910121,0.263055282593922,0.0783403713518967,26.3636363636364,61,1,5,4,1,0,1,0.223682865891363,0.101309429453716,4.61329715061061
"251",32,0.522865000526887,0.242947342909072,0.149494522505198,0.477542591348917,NA,26.3636363636364,61,0.5,3,3,1,1,0,0.223682865891363,0.101309429453716,4.61329715061061
"252",32,0.263570646977767,0.119975456791246,0.0618879172831765,0.214819362990825,NA,26.3636363636364,61,0.25,2,4.5,1,1,1,0.223682865891363,0.101309429453716,4.61329715061061
"253",32,0.478594034518066,0.217242044683072,0.136063726022526,0.404021504919863,0.0205579244852083,26.3636363636364,61,0.8125,2.5,3,0,0,0,0.223682865891363,0.101309429453716,4.61329715061061
"254",32,0.231907407047912,0.129010539728857,0.0699906026339038,0.204905335319287,0.0326299434982465,26.3636363636364,61,0.5,3,4.5,0,0,1,0.223682865891363,0.101309429453716,4.61329715061061
"255",32,0.486075451768183,0.225632921623509,0.149110544421651,0.430083875467386,NA,26.3636363636364,61,1,3.5,1.5,0,1,0,0.223682865891363,0.101309429453716,4.61329715061061
"256",32,0.287344156290215,0.115367581034465,0.062337669871838,0.227672769650221,NA,26.3636363636364,61,0.5,3,4,0,1,1,0.223682865891363,0.101309429453716,4.61329715061061
"257",33,0.402846247456394,0.15798921596625,0.111820822981145,0.306782591306374,0.170655941071901,24.3181818181818,61,0.8125,5,2,1,0,0,0.0782902322477565,-0.0440832041898904,2.56784260515601
"258",33,0.240426198606707,0.0809477977822205,0.0261759678293934,0.179688319387316,0.0859900457041307,24.3181818181818,61,0.75,5,3.5,1,0,1,0.0782902322477565,-0.0440832041898904,2.56784260515601
"259",33,0.403450563086539,0.184523361972064,0.113057782970844,0.317544851307728,NA,24.3181818181818,61,0.5,5,1.5,1,1,0,0.0782902322477565,-0.0440832041898904,2.56784260515601
"260",33,0.126858748171754,0.0652826743635724,0.0191584188618067,0.108393842230852,NA,24.3181818181818,61,0.75,5,4,1,1,1,0.0782902322477565,-0.0440832041898904,2.56784260515601
"261",33,0.410395971425842,0.163524808742615,0.113985355128535,0.349777560639241,0.0811085429519829,24.3181818181818,61,0.8125,5,2.5,0,0,0,0.0782902322477565,-0.0440832041898904,2.56784260515601
"262",33,0.213689840443386,0.0823483813548682,0.0241835472867468,0.212271701691191,0.0526538660175866,24.3181818181818,61,1,5,3,0,0,1,0.0782902322477565,-0.0440832041898904,2.56784260515601
"263",33,0.416220082075063,0.180321903873848,0.125795603660724,0.342930037152454,NA,24.3181818181818,61,0.75,4.5,2,0,1,0,0.0782902322477565,-0.0440832041898904,2.56784260515601
"264",33,0.104764068985678,0.0318561863968523,0.0268611612404357,0.0882271944126534,NA,24.3181818181818,61,1,4,4.5,0,1,1,0.0782902322477565,-0.0440832041898904,2.56784260515601
"265",34,0.285300376485874,0.144749321258292,0.0692297637825783,0.239917120942507,0.0358466365635951,30,61,0.75,4,3.5,1,0,0,0.139444118623551,0.0170706821859041,8.24966078697421
"266",34,-0.0103896672574884,-0.0369364372795894,-0.00795582513963125,-0.0395714994237905,0.00139235141922101,30,61,0.75,3,3.5,1,0,1,0.139444118623551,0.0170706821859041,8.24966078697421
"267",34,0.239249195560099,0.123725216832737,0.0532003277636963,0.24617998362769,NA,30,61,0.5,4,3.5,1,1,0,0.139444118623551,0.0170706821859041,8.24966078697421
"268",34,0.0884806771799966,0.0545989659952683,0.0210023679840162,0.0816187435335272,NA,30,61,0.75,4,5,1,1,1,0.139444118623551,0.0170706821859041,8.24966078697421
"269",34,0.348975965193918,0.148510701353788,0.0750991815021989,0.300682044381771,0.0477565530613162,30,61,0.625,3.5,3.5,0,0,0,0.139444118623551,0.0170706821859041,8.24966078697421
"270",34,0.107662106256377,0.049594796969057,0.0160623432085232,0.0845319808548068,0.0243856532340422,30,61,0.5,3.5,5,0,0,1,0.139444118623551,0.0170706821859041,8.24966078697421
"271",34,0.219260161850702,0.0974563892116028,0.0621852942239324,0.177461410656665,NA,30,61,1,3.5,4,0,1,0,0.139444118623551,0.0170706821859041,8.24966078697421
"272",34,0.0286394449402295,-0.00510874390896399,0.00401277486953974,0.0628216283680123,NA,30,61,0.25,3,5,0,1,1,0.139444118623551,0.0170706821859041,8.24966078697421
"273",35,0.270566540224235,0.126654109495966,0.0838466539613309,0.260230888483341,0.101004313780239,8.63636363636364,61,0.625,4,3,1,0,0,0.226706316705618,0.104332880267971,-13.1139755766621
"274",35,0.0958192340466789,0.0536675333926719,0.029353438338899,0.0721041239320154,0.160015017648303,8.63636363636364,61,0.75,4.5,4.5,1,0,1,0.226706316705618,0.104332880267971,-13.1139755766621
"275",35,0.329277216006539,0.160338476456953,0.100490720021053,0.310721401212207,NA,8.63636363636364,61,1,4,4,1,1,0,0.226706316705618,0.104332880267971,-13.1139755766621
"276",35,0.0933795329980382,0.0297102796983128,0.00566120309286772,0.0433766135312425,NA,8.63636363636364,61,0.25,5,5,1,1,1,0.226706316705618,0.104332880267971,-13.1139755766621
"277",35,0.287102855731222,0.121660145190121,0.0824499030192945,0.255061141386551,0.0759580848096868,8.63636363636364,61,0.6875,3.5,4,0,0,0,0.226706316705618,0.104332880267971,-13.1139755766621
"278",35,0.117405362376795,0.0533531099070586,0.0254758092482577,0.0879749233545793,0.0354024842967121,8.63636363636364,61,0.75,4,4.5,0,0,1,0.226706316705618,0.104332880267971,-13.1139755766621
"279",35,0.328040508668229,0.134705567412247,0.087709579025212,0.267137381370061,NA,8.63636363636364,61,0.5,4,4.5,0,1,0,0.226706316705618,0.104332880267971,-13.1139755766621
"280",35,0.148174464439141,0.0874703565840023,0.0219628740732406,0.138416463016789,NA,8.63636363636364,61,1,4.5,4.5,0,1,1,0.226706316705618,0.104332880267971,-13.1139755766621
"281",36,0.280686383566208,0.124401350168026,0.0683713741352054,0.253891362107389,0.0745799872301445,8.86363636363636,60,0.6875,3.5,3,1,0,0,0.208677340239948,0.0863039038023011,-12.8867028493894
"282",36,0.237301034953276,0.104028690845495,0.0286064466691017,0.213589729457752,0.110418994026584,8.86363636363636,60,0.5,5,4.5,1,0,1,0.208677340239948,0.0863039038023011,-12.8867028493894
"283",36,0.306297212151356,0.13466741900884,0.0893945327327946,0.246341565082945,NA,8.86363636363636,60,1,3.5,3.5,1,1,0,0.208677340239948,0.0863039038023011,-12.8867028493894
"284",36,0.101133721937245,0.0500846135896231,0.0239640412215029,0.0484595666974046,NA,8.86363636363636,60,1,4,4,1,1,1,0.208677340239948,0.0863039038023011,-12.8867028493894
"285",36,0.3259817628272,0.11990006966692,0.0735706947899777,0.263879552860308,0.0571710602653832,8.86363636363636,60,0.875,3,3,0,0,0,0.208677340239948,0.0863039038023011,-12.8867028493894
"286",36,0.198689445366198,0.0586820353382984,0.0342396620582971,0.171884902292844,0.00331179647950552,8.86363636363636,60,0.25,5,4,0,0,1,0.208677340239948,0.0863039038023011,-12.8867028493894
"287",36,0.266503363073011,0.110905006665387,0.0697231192379121,0.233107848109652,NA,8.86363636363636,60,0.75,3,3,0,1,0,0.208677340239948,0.0863039038023011,-12.8867028493894
"288",36,0.129152245478467,0.057719751354227,0.0357294662962346,0.109612150648301,NA,8.86363636363636,60,0.75,3.5,4.5,0,1,1,0.208677340239948,0.0863039038023011,-12.8867028493894
"289",37,0.279395687383362,0.14802022411755,0.0773200736676481,0.258994053695643,0.0592744338687359,24.0909090909091,60,0.5,2,2.5,1,0,0,0.0436239175621116,-0.0787495188755353,2.34056987788331
"290",37,0.134516164850014,0.0912344991757506,0.042014816954332,0.144973821544266,0.0325883455321053,24.0909090909091,60,0.75,4,4,1,0,1,0.0436239175621116,-0.0787495188755353,2.34056987788331
"291",37,0.162031620994859,0.093785692225911,0.0624955103406349,0.147383836600767,NA,24.0909090909091,60,0.75,3,3,1,1,0,0.0436239175621116,-0.0787495188755353,2.34056987788331
"292",37,0.175558735822065,0.0776291744485917,0.0165185375460883,0.177706075408213,NA,24.0909090909091,60,1,5,5,1,1,1,0.0436239175621116,-0.0787495188755353,2.34056987788331
"293",37,0.301879477777467,0.125513341205961,0.0787148904941026,0.266262612438125,0.0265053095439244,24.0909090909091,60,0.5,4,3,0,0,0,0.0436239175621116,-0.0787495188755353,2.34056987788331
"294",37,0.210165048012798,0.124151123393317,0.0388667793902498,0.164858102962781,0.0569715213132766,24.0909090909091,60,0.75,4.5,4.5,0,0,1,0.0436239175621116,-0.0787495188755353,2.34056987788331
"295",37,0.311660612983257,0.146728460576747,0.0882856423351783,0.262733900258302,NA,24.0909090909091,60,0.75,3,3,0,1,0,0.0436239175621116,-0.0787495188755353,2.34056987788331
"296",37,0.10129273452739,0.0185419116630831,0.00833511998514971,0.0927653702798066,NA,24.0909090909091,60,0.75,4.5,4.5,0,1,1,0.0436239175621116,-0.0787495188755353,2.34056987788331
"297",38,0.301488480700238,0.157847352014421,0.105386944270816,0.249924145098505,0.0451215983484777,10.4545454545455,60,0.6875,4.5,3.5,1,0,0,0.196085449627726,0.0737120131900791,-11.2957937584803
"298",38,0.292313332850888,0.144668943733924,0.100244822101406,0.281962840121059,0.106785635791937,10.4545454545455,60,0.75,5,4.5,1,0,1,0.196085449627726,0.0737120131900791,-11.2957937584803
"299",38,0.313402109699401,0.162939976535955,0.124416416096619,0.30140866481681,NA,10.4545454545455,60,0.75,5,3.5,1,1,0,0.196085449627726,0.0737120131900791,-11.2957937584803
"300",38,0.251149057347217,0.126706872743633,0.0666067434490382,0.217599503734399,NA,10.4545454545455,60,0.25,4.5,4,1,1,1,0.196085449627726,0.0737120131900791,-11.2957937584803
"301",38,0.336815496599791,0.155487822237911,0.0998258837456574,0.289715377211297,0.0648217292214958,10.4545454545455,60,0.875,4.5,3.5,0,0,0,0.196085449627726,0.0737120131900791,-11.2957937584803
"302",38,0.138328224727503,0.06559600384263,0.0381412745433993,0.138171603134147,0.0355659546901749,10.4545454545455,60,0.5,5,5,0,0,1,0.196085449627726,0.0737120131900791,-11.2957937584803
"303",38,0.336520462356695,0.1806080917021,0.0879341315963696,0.287486510491276,NA,10.4545454545455,60,0.5,4,3.5,0,1,0,0.196085449627726,0.0737120131900791,-11.2957937584803
"304",38,0.210822857367074,0.123486020950376,0.0334139570860947,0.209436977984858,NA,10.4545454545455,60,0.75,5,5,0,1,1,0.196085449627726,0.0737120131900791,-11.2957937584803
"305",39,0.28351502793305,0.118642664773264,0.0899817709178837,0.228832185310047,0.0253897463755836,21.1363636363636,60,0.625,2.5,3.5,1,0,0,0.0710289077739229,-0.051344528663724,-0.613975576662185
"306",39,0.111979193896407,0.0311987990906688,0.0201172112955118,0.10102421984926,-0.0127198373271129,21.1363636363636,60,0.25,2,5,1,0,1,0.0710289077739229,-0.051344528663724,-0.613975576662185
"307",39,0.210474515620007,0.0865686383562856,0.0577283779501682,0.184070830835947,NA,21.1363636363636,60,0.5,2,4,1,1,0,0.0710289077739229,-0.051344528663724,-0.613975576662185
"308",39,0.088199819974939,0.050587422689281,0.0110165980438754,0.0534691648478674,NA,21.1363636363636,60,0.25,1.5,4.5,1,1,1,0.0710289077739229,-0.051344528663724,-0.613975576662185
"309",39,0.257123647208796,0.106074057965684,0.069758640862227,0.198831822622289,0.00866186237218224,21.1363636363636,60,0.375,2.5,4.5,0,0,0,0.0710289077739229,-0.051344528663724,-0.613975576662185
"310",39,0.0892311377006768,0.0430414985488538,0.0318207702021462,0.0550144765637337,-0.00146946496531516,21.1363636363636,60,0.5,2,5,0,0,1,0.0710289077739229,-0.051344528663724,-0.613975576662185
"311",39,0.221893436930893,0.106345297782561,0.0663320522589875,0.182349561915021,NA,21.1363636363636,60,0.75,2,4.5,0,1,0,0.0710289077739229,-0.051344528663724,-0.613975576662185
"312",39,0.0620847990351878,0.0215455688766869,0.0155435159257222,0.00691662473531457,NA,21.1363636363636,60,0.5,3,5,0,1,1,0.0710289077739229,-0.051344528663724,-0.613975576662185
"313",40,0.338358133559615,0.124231428352872,0.0891132784347048,0.271784320149836,0.0834156199916642,15.6818181818182,60,0.5,3,2.5,1,0,0,0.0675763139697384,-0.0547971224679085,-6.06852103120759
"314",40,0.167888877459124,0.0963699600803094,0.0370450360341385,0.10344908251055,0.0806284177415159,15.6818181818182,60,0.75,4,4,1,0,1,0.0675763139697384,-0.0547971224679085,-6.06852103120759
"315",40,0.31143800140194,0.111853693253267,0.0678063732762031,0.262159430975501,NA,15.6818181818182,60,0.75,4,2.5,1,1,0,0.0675763139697384,-0.0547971224679085,-6.06852103120759
"316",40,0.109706039109431,0.0517184642087067,0.010605458047686,0.071022298098844,NA,15.6818181818182,60,0.5,4,4,1,1,1,0.0675763139697384,-0.0547971224679085,-6.06852103120759
"317",40,0.319076573085088,0.115380018215446,0.0804838403057386,0.232691397422001,0.058650358641027,15.6818181818182,60,0.6875,3.5,2.5,0,0,0,0.0675763139697384,-0.0547971224679085,-6.06852103120759
"318",40,0.186606363356431,0.0551640639450208,0.0109212675868024,0.158041707698232,0.0627194951501954,15.6818181818182,60,0.75,4,5,0,0,1,0.0675763139697384,-0.0547971224679085,-6.06852103120759
"319",40,0.37159207188302,0.120594788776382,0.0919170651602759,0.289757025008832,NA,15.6818181818182,60,0.75,3,3,0,1,0,0.0675763139697384,-0.0547971224679085,-6.06852103120759
"320",40,0.0118272328533349,0.0187989114611204,0.00534843811130845,-0.000792737521316331,NA,15.6818181818182,60,0.75,5,5,0,1,1,0.0675763139697384,-0.0547971224679085,-6.06852103120759
"321",41,0.601197381588189,0.248032594657844,0.172621543725438,0.558916876908402,0.147422388028846,15.6818181818182,60,0.375,5,2,1,0,0,0.202987540985296,0.0806141045476491,-6.06852103120759
"322",41,0.328399114835869,0.148373491404327,0.0987282621641088,0.301101336416507,0.153581095680833,15.6818181818182,60,0.25,4,4,1,0,1,0.202987540985296,0.0806141045476491,-6.06852103120759
"323",41,0.580938505102031,0.21497771594462,0.164631179582302,0.55742684262346,NA,15.6818181818182,60,0.25,3,2,1,1,0,0.202987540985296,0.0806141045476491,-6.06852103120759
"324",41,0.250648221772703,0.0953777926102742,0.0706539941379484,0.195048591545077,NA,15.6818181818182,60,0.25,4,4,1,1,1,0.202987540985296,0.0806141045476491,-6.06852103120759
"325",41,0.558937091901542,0.234072290519702,0.156520609106661,0.501116117728819,0.0776144722780128,15.6818181818182,60,0.3125,4.5,2.5,0,0,0,0.202987540985296,0.0806141045476491,-6.06852103120759
"326",41,0.289339796279618,0.136446918291741,0.0879013913152651,0.263997129819544,0.0292977195400042,15.6818181818182,60,0.5,4,4,0,0,1,0.202987540985296,0.0806141045476491,-6.06852103120759
"327",41,0.570491831394264,0.258308699164873,0.181815992319303,0.531524594530355,NA,15.6818181818182,60,0.5,3.5,3.5,0,1,0,0.202987540985296,0.0806141045476491,-6.06852103120759
"328",41,0.335676943344162,0.136926420922713,0.0900935463468461,0.292367702401742,NA,15.6818181818182,60,0.5,3.5,4.5,0,1,1,0.202987540985296,0.0806141045476491,-6.06852103120759
"329",42,0.498415353530459,0.203835756851997,0.130032763671138,0.417124972338652,0.0724003312419916,23.1818181818182,60,0.5625,4,4,1,0,0,0.0107254549540446,-0.111647981483602,1.43147896879242
"330",42,0.299078100783906,0.0950543823701025,0.0479696274273782,0.242192808637132,0.042703093026163,23.1818181818182,60,0.25,4,4,1,0,1,0.0107254549540446,-0.111647981483602,1.43147896879242
"331",42,0.511364025723627,0.239361496340356,0.155122227424975,0.459342275221557,NA,23.1818181818182,60,0.75,4,4,1,1,0,0.0107254549540446,-0.111647981483602,1.43147896879242
"332",42,0.243244810154394,0.0678796854261416,0.0626023846106177,0.189029916788331,NA,23.1818181818182,60,0.5,4,4.5,1,1,1,0.0107254549540446,-0.111647981483602,1.43147896879242
"333",42,0.461913976398979,0.209633326165053,0.135731559272145,0.398361535416423,0.0932675954168084,23.1818181818182,60,0.6875,4,4,0,0,0,0.0107254549540446,-0.111647981483602,1.43147896879242
"334",42,0.253379338092294,0.118122910985418,0.062129015609826,0.204064928713163,0.029623336422619,23.1818181818182,60,0,4,4,0,0,1,0.0107254549540446,-0.111647981483602,1.43147896879242
"335",42,0.413799155960107,0.179716568633755,0.110047068719982,0.294197319928213,NA,23.1818181818182,60,0.5,4,3,0,1,0,0.0107254549540446,-0.111647981483602,1.43147896879242
"336",42,0.207570622199673,0.0684031179403082,0.0528606919200978,0.151221434603415,NA,23.1818181818182,60,0.5,4,4,0,1,1,0.0107254549540446,-0.111647981483602,1.43147896879242
"337",43,0.257867125471589,0.139085926108476,0.0876363186131134,0.213972944793108,0.0467017433302288,9.77272727272727,60,0.6875,5,3,1,0,0,0.154613517708943,0.0322400812712961,-11.9776119402985
"338",43,0.0437397085316202,0.0213354401503881,0.0224003677849849,0.0345719786439924,0.0481897749504365,9.77272727272727,60,0.75,5,4.5,1,0,1,0.154613517708943,0.0322400812712961,-11.9776119402985
"339",43,-0.0473451841625515,-0.00174739084937596,-0.00293817387631272,-0.0594172225958219,NA,9.77272727272727,60,0.75,4.5,3,1,1,0,0.154613517708943,0.0322400812712961,-11.9776119402985
"340",43,0.0111567125199036,0.0138063582272287,0.0263569357072782,0.0289121966809475,NA,9.77272727272727,60,0.25,5,5,1,1,1,0.154613517708943,0.0322400812712961,-11.9776119402985
"341",43,0.161749511958731,0.0681510173190327,0.0438735237306926,0.118740481729631,0.0218550726604443,9.77272727272727,60,0.6875,5,2,0,0,0,0.154613517708943,0.0322400812712961,-11.9776119402985
"342",43,0.0747786857948888,0.0361374860572828,0.0416232886003901,0.0472222740972973,-0.0469576458021654,9.77272727272727,60,0.75,5,4.5,0,0,1,0.154613517708943,0.0322400812712961,-11.9776119402985
"343",43,0.308022413172622,0.138930305287155,0.0833940256209768,0.273135949498721,NA,9.77272727272727,60,1,4.5,2,0,1,0,0.154613517708943,0.0322400812712961,-11.9776119402985
"344",43,0.0975644668914807,0.0282619641008602,0.0120706347196133,0.0548303515827348,NA,9.77272727272727,60,0.75,5,4.5,0,1,1,0.154613517708943,0.0322400812712961,-11.9776119402985
"345",44,0.450668798945074,0.198201076615206,0.146418175884936,0.359298449717726,0.146045343533295,20.4545454545455,60,0.8125,4,3.5,1,0,0,0.129884438807528,0.00751100236988107,-1.29579375848029
"346",44,0.191433205377282,0.12484635103644,0.0793974516584719,0.182937237918465,0.0641521220156775,20.4545454545455,60,0.75,5,5,1,0,1,0.129884438807528,0.00751100236988107,-1.29579375848029
"347",44,0.389912112121514,0.160868705396147,0.117529251087455,0.326393627535727,NA,20.4545454545455,60,1,3,4,1,1,0,0.129884438807528,0.00751100236988107,-1.29579375848029
"348",44,0.205098556315493,0.122241682990276,0.0528498525667167,0.166571398899451,NA,20.4545454545455,60,0.5,4,5,1,1,1,0.129884438807528,0.00751100236988107,-1.29579375848029
"349",44,0.459979544993184,0.220563462770366,0.138332157658772,0.385149612050002,0.090637864191937,20.4545454545455,60,0.75,4,3.5,0,0,0,0.129884438807528,0.00751100236988107,-1.29579375848029
"350",44,0.190566146500024,0.0821238586438563,0.0515140423780262,0.148437788158023,-0.0085695461058728,20.4545454545455,60,0.75,3.5,5,0,0,1,0.129884438807528,0.00751100236988107,-1.29579375848029
"351",44,0.405688494477739,0.184553661422067,0.125460733823711,0.348887164693368,NA,20.4545454545455,60,0.25,3.5,4,0,1,0,0.129884438807528,0.00751100236988107,-1.29579375848029
"352",44,0.157041302461667,0.0630181888088731,0.0281050919103437,0.17055212928079,NA,20.4545454545455,60,0.5,3,5,0,1,1,0.129884438807528,0.00751100236988107,-1.29579375848029
"353",45,0.451836544817214,0.189937739781014,0.139051831019357,0.386049768752585,0.17128984040754,22.5,59,0.75,4,1.5,1,0,0,0.151555975787017,0.0291825393493701,0.749660786974214
"354",45,0.277441772508446,0.153847601389249,0.0891637561311465,0.252194681479008,0.102749134810122,22.5,59,0.75,4.5,4,1,0,1,0.151555975787017,0.0291825393493701,0.749660786974214
"355",45,0.439553799826014,0.222224301580402,0.117231179761364,0.375154311512447,NA,22.5,59,0.75,4,1.5,1,1,0,0.151555975787017,0.0291825393493701,0.749660786974214
"356",45,0.24959461784774,0.142551935785154,0.0770912904931697,0.247987217362191,NA,22.5,59,0.5,4.5,3,1,1,1,0.151555975787017,0.0291825393493701,0.749660786974214
"357",45,0.42919437885913,0.206865603994835,0.12912553346766,0.373613746022359,0.102133446767374,22.5,59,0.75,4.5,1,0,0,0,0.151555975787017,0.0291825393493701,0.749660786974214
"358",45,0.179232134884833,0.0880813521581673,0.0525062009093648,0.166760537705525,0.0082391424986256,22.5,59,0.5,3.5,3.5,0,0,1,0.151555975787017,0.0291825393493701,0.749660786974214
"359",45,0.475896937043953,0.206552868123405,0.122417249346792,0.41269793665438,NA,22.5,59,0.75,4.5,2.5,0,1,0,0.151555975787017,0.0291825393493701,0.749660786974214
"360",45,0.217254742240022,0.100369233892218,0.0562443977255685,0.165507051664092,NA,22.5,59,0.5,4,4.5,0,1,1,0.151555975787017,0.0291825393493701,0.749660786974214
"361",46,0.35174847636139,0.147116361728325,0.119972925982315,0.283708322335245,0.0598953089592561,25.4545454545455,59,0.8125,3,2,1,0,0,0.0402421959285437,-0.0821312405091032,3.70420624151971
"362",46,0.0344102624414936,0.0109015509669165,0.0274308485558862,0.0268113099174623,-0.0164482180835001,25.4545454545455,59,0.25,3,4.5,1,0,1,0.0402421959285437,-0.0821312405091032,3.70420624151971
"363",46,0.324448574351373,0.118670050904961,0.122084538457866,0.297744088493949,NA,25.4545454545455,59,0.5,3.5,2.5,1,1,0,0.0402421959285437,-0.0821312405091032,3.70420624151971
"364",46,0.0312715497696778,-0.0294435437905525,-0.0245453762033967,0.00201385191451273,NA,25.4545454545455,59,0.25,3,4.5,1,1,1,0.0402421959285437,-0.0821312405091032,3.70420624151971
"365",46,0.345128894054136,0.145754788819018,0.0937952596155024,0.265642781719777,0.0303410439136862,25.4545454545455,59,0.5,3,3,0,0,0,0.0402421959285437,-0.0821312405091032,3.70420624151971
"366",46,0.228042140724697,0.0818549352714657,0.0454213616572092,0.161978006396875,0.0414351896514903,25.4545454545455,59,0.25,3,4,0,0,1,0.0402421959285437,-0.0821312405091032,3.70420624151971
"367",46,0.443296911206745,0.196161588225849,0.12945693739267,0.352023934201835,NA,25.4545454545455,59,0.75,3,3.5,0,1,0,0.0402421959285437,-0.0821312405091032,3.70420624151971
"368",46,0.0484233027676293,0.023887104521756,0.0140329356601606,0.0201980754321977,NA,25.4545454545455,59,0.75,3,3.5,0,1,1,0.0402421959285437,-0.0821312405091032,3.70420624151971
"369",47,0.243849194631372,0.109817170398194,0.0770909344069234,0.213020072024567,0.0286437555479592,13.6363636363636,59,0.5625,2.5,3.5,1,0,0,0.046856335018737,-0.0755171014189099,-8.11397557666219
"370",47,0.301693526698781,0.170950946174272,0.083412679127865,0.237481756360515,0.0535371078558239,13.6363636363636,59,0.75,3,3.5,1,0,1,0.046856335018737,-0.0755171014189099,-8.11397557666219
"371",47,0.298130047084244,0.161848946714848,0.0940975875913755,0.315668093430572,NA,13.6363636363636,59,0.75,2.5,4.5,1,1,0,0.046856335018737,-0.0755171014189099,-8.11397557666219
"372",47,0.257593199241259,0.153264420839458,0.0573286606020628,0.208979403432724,NA,13.6363636363636,59,0.75,3.5,3.5,1,1,1,0.046856335018737,-0.0755171014189099,-8.11397557666219
"373",47,0.25298648216449,0.129359025650907,0.0785021040321101,0.216834111017838,0.0649497317130786,13.6363636363636,59,0.8125,3,2.5,0,0,0,0.046856335018737,-0.0755171014189099,-8.11397557666219
"374",47,0.128575539824163,0.0391772812783225,0.0503744580881214,0.116122945517021,-0.0176243259854731,13.6363636363636,59,0.75,2.5,4.5,0,0,1,0.046856335018737,-0.0755171014189099,-8.11397557666219
"375",47,0.174710450028181,0.0798090557233251,0.0612227274595033,0.153333282149098,NA,13.6363636363636,59,0.75,2.5,4,0,1,0,0.046856335018737,-0.0755171014189099,-8.11397557666219
"376",47,0.148221251592184,0.0716308160017495,0.0439235961482879,0.140443335962238,NA,13.6363636363636,59,0.5,4,4.5,0,1,1,0.046856335018737,-0.0755171014189099,-8.11397557666219
"377",48,0.411075987070072,0.195199748497131,0.128411317879905,0.343353412088588,0.19976806267515,17.5,59,0.8125,5,4,1,0,0,0.365049574919156,0.242676138481509,-4.25033921302579
"378",48,0.229065760333483,0.14088748500156,0.0616253905852352,0.21610213926406,0.164337463028712,17.5,59,0.5,5,5,1,0,1,0.365049574919156,0.242676138481509,-4.25033921302579
"379",48,0.3158116811528,0.174244954874402,0.0857196973670431,0.298875720974717,NA,17.5,59,1,5,4.5,1,1,0,0.365049574919156,0.242676138481509,-4.25033921302579
"380",48,0.100178029852567,0.079015370270365,0.0405034164828219,0.120095969864465,NA,17.5,59,0.75,5,5,1,1,1,0.365049574919156,0.242676138481509,-4.25033921302579
"381",48,0.369007685033937,0.197767255508581,0.123693759781805,0.313841684898463,0.044374715944561,17.5,59,0.6875,4.5,3.5,0,0,0,0.365049574919156,0.242676138481509,-4.25033921302579
"382",48,0.0977703005926811,0.100269811348212,0.0305696236319595,0.166479807567284,0.0101908762211112,17.5,59,1,5,5,0,0,1,0.365049574919156,0.242676138481509,-4.25033921302579
"383",48,0.400696999715743,0.209243491172617,0.120954817237651,0.36151159883024,NA,17.5,59,1,5,4,0,1,0,0.365049574919156,0.242676138481509,-4.25033921302579
"384",48,0.132455965228912,0.0475565101016687,0.0331281693436532,0.100168281037498,NA,17.5,59,0.5,5,5,0,1,1,0.365049574919156,0.242676138481509,-4.25033921302579
"385",49,0.483632178700729,0.204833771438094,0.105628080794278,0.417277309417082,0.189603581942291,20.4545454545455,58,0.6875,2.5,2.5,1,0,0,0.215261825810245,0.0928883893725981,-1.29579375848029
"386",49,0.0750599931999562,0.0233069870099971,0.0232411181516481,0.0632966438159578,-0.0293477331107017,20.4545454545455,58,0.5,5,4,1,0,1,0.215261825810245,0.0928883893725981,-1.29579375848029
"387",49,0.502997358883251,0.242212276777427,0.139905269485539,0.451566359605857,NA,20.4545454545455,58,0.75,2.5,1.5,1,1,0,0.215261825810245,0.0928883893725981,-1.29579375848029
"388",49,0.0897613160155332,0.0214813255237543,0.0125023639484261,0.0885051247680533,NA,20.4545454545455,58,0.5,4,5,1,1,1,0.215261825810245,0.0928883893725981,-1.29579375848029
"389",49,0.543586076623061,0.245432683012604,0.143554367648452,0.452921498839167,0.100420841998995,20.4545454545455,58,0.75,3.5,3,0,0,0,0.215261825810245,0.0928883893725981,-1.29579375848029
"390",49,0.108062449889129,0.0588192528247289,0.0285905179966415,0.057132501092353,-0.0181953442490476,20.4545454545455,58,0.5,4.5,5,0,0,1,0.215261825810245,0.0928883893725981,-1.29579375848029
"391",49,0.520171308560406,0.227473504343719,0.1394714646411,0.457443864644869,NA,20.4545454545455,58,0.5,4,2.5,0,1,0,0.215261825810245,0.0928883893725981,-1.29579375848029
"392",49,0.0954708175258955,0.0730890439556692,0.0480628110726452,0.154577210107825,NA,20.4545454545455,58,1,5,4.5,0,1,1,0.215261825810245,0.0928883893725981,-1.29579375848029
"393",50,0.341897108533342,0.147791944178759,0.102761775281175,0.295404529888391,0.0786929446450708,9.77272727272727,58,0.875,4,2.5,1,0,0,0.0256279017314425,-0.0967455347062044,-11.9776119402985
"394",50,0.228438286018639,0.109200318920829,0.0424399347695203,0.171835139789306,0.0612229730564305,9.77272727272727,58,0.25,4,4,1,0,1,0.0256279017314425,-0.0967455347062044,-11.9776119402985
"395",50,0.337709841892118,0.151759635954398,0.11380102816629,0.266830859636316,NA,9.77272727272727,58,0.75,4,4.5,1,1,0,0.0256279017314425,-0.0967455347062044,-11.9776119402985
"396",50,0.127355504547789,0.0426438558065789,0.013058205915385,0.0985445119970396,NA,9.77272727272727,58,0.75,4,4,1,1,1,0.0256279017314425,-0.0967455347062044,-11.9776119402985
"397",50,0.383833038395104,0.164874745587046,0.111972449594402,0.324607223524207,0.0484032381599946,9.77272727272727,58,0.6875,3.5,3.5,0,0,0,0.0256279017314425,-0.0967455347062044,-11.9776119402985
"398",50,0.167925607104121,0.0849917791214561,0.0338301503303875,0.134135503853825,0.0280087325883475,9.77272727272727,58,1,4,4,0,0,1,0.0256279017314425,-0.0967455347062044,-11.9776119402985
"399",50,0.287142888123558,0.103897420763855,0.091374515435602,0.251923611328964,NA,9.77272727272727,58,0.75,4,4,0,1,0,0.0256279017314425,-0.0967455347062044,-11.9776119402985
"400",50,0.24917224138643,0.107049746946495,0.0233638390820874,0.186203628620595,NA,9.77272727272727,58,0.75,4,4,0,1,1,0.0256279017314425,-0.0967455347062044,-11.9776119402985
"401",51,0.258041525531192,0.135948337199431,0.0617671103098628,0.209820894041736,0.0642898838100266,39.7727272727273,58,0.5625,3,3,1,0,0,-0.0191436467026853,-0.141517083140332,18.0223880597015
"402",51,0.175979885213858,0.0625704897483718,0.044734452993239,0.108814712674835,0.0315346845030176,39.7727272727273,58,0.75,3,3,1,0,1,-0.0191436467026853,-0.141517083140332,18.0223880597015
"403",51,0.198430447476567,0.117997228223985,0.0639599203386945,0.183863934086335,NA,39.7727272727273,58,0.75,3,3,1,1,0,-0.0191436467026853,-0.141517083140332,18.0223880597015
"404",51,0.127282437452744,0.0399619310662402,0.0322674930220362,0.100554299908224,NA,39.7727272727273,58,0.5,3,4.5,1,1,1,-0.0191436467026853,-0.141517083140332,18.0223880597015
"405",51,0.279903974034412,0.124852202796824,0.0795908614199443,0.194326608236833,-0.005675658048606,39.7727272727273,58,0.4375,3,3,0,0,0,-0.0191436467026853,-0.141517083140332,18.0223880597015
"406",51,0.0805575638220698,0.0421474833803065,0.0423580051369727,0.0402951130178495,0.0135095434725801,39.7727272727273,58,0.5,3,3,0,0,1,-0.0191436467026853,-0.141517083140332,18.0223880597015
"407",51,0.191401085179299,0.0973372078807286,0.0572010771467879,0.186918933107633,NA,39.7727272727273,58,0.75,3,3,0,1,0,-0.0191436467026853,-0.141517083140332,18.0223880597015
"408",51,0.0878126802117896,0.0206707199634781,0.0157580635001101,0.0262812480800565,NA,39.7727272727273,58,0.75,3,3,0,1,1,-0.0191436467026853,-0.141517083140332,18.0223880597015
"409",52,0.278502599552953,0.110522587449216,0.0931203330972594,0.21870553700856,0.084142119477414,27.2727272727273,58,0.6875,5,1,1,0,0,0.096144944718965,-0.0262284917186819,5.52238805970151
"410",52,0.180155383429075,0.0786164814426327,0.0422573901799562,0.134480714210029,0.058320251461204,27.2727272727273,58,0.5,5,4,1,0,1,0.096144944718965,-0.0262284917186819,5.52238805970151
"411",52,0.280951720408926,0.1212878408226,0.0915447778725533,0.233814212197621,NA,27.2727272727273,58,0.25,4,2,1,1,0,0.096144944718965,-0.0262284917186819,5.52238805970151
"412",52,0.149181625819497,0.0501027943237848,0.0312577968316004,0.132066790518405,NA,27.2727272727273,58,0.5,4,5,1,1,1,0.096144944718965,-0.0262284917186819,5.52238805970151
"413",52,0.228472223937911,0.071871595413241,0.0728581563527507,0.166873542237079,0.0195873128130113,27.2727272727273,58,0.625,4.5,1,0,0,0,0.096144944718965,-0.0262284917186819,5.52238805970151
"414",52,0.0739786514096936,0.0494944855548779,0.0260611779333891,0.05424978371355,0.00755214547884635,27.2727272727273,58,1,3,5,0,0,1,0.096144944718965,-0.0262284917186819,5.52238805970151
"415",52,0.196250637878201,0.0537965575892365,0.0659086632811871,0.13747328633331,NA,27.2727272727273,58,0.5,4.5,1,0,1,0,0.096144944718965,-0.0262284917186819,5.52238805970151
"416",52,0.0646744353098214,0.058135048803728,0.00200372515735947,0.0586014929221452,NA,27.2727272727273,58,0.25,5,5,0,1,1,0.096144944718965,-0.0262284917186819,5.52238805970151
"417",53,0.39748739520678,0.184438858996912,0.13613882135859,0.361051537459274,0.0713235157341643,8.86363636363636,58,0.875,4,1.5,1,0,0,0.0828861241309899,-0.039487312306657,-12.8867028493894
"418",53,0.258193865236886,0.103758683328664,0.0839730132801934,0.200060872425787,0.0598497038086358,8.86363636363636,58,1,5,4,1,0,1,0.0828861241309899,-0.039487312306657,-12.8867028493894
"419",53,0.35219341736298,0.148737952927166,0.111649134535282,0.289507724933482,NA,8.86363636363636,58,1,4.5,2.5,1,1,0,0.0828861241309899,-0.039487312306657,-12.8867028493894
"420",53,0.166673616080685,0.0766400114696603,0.0508801290534246,0.147770810034718,NA,8.86363636363636,58,0.75,5,4,1,1,1,0.0828861241309899,-0.039487312306657,-12.8867028493894
"421",53,0.44658964142118,0.185632053354441,0.136417626507019,0.371131949437151,0.0634033649834339,8.86363636363636,58,0.8125,4.5,2.5,0,0,0,0.0828861241309899,-0.039487312306657,-12.8867028493894
"422",53,0.180780035444446,0.0767631559421664,0.0293897967015861,0.141991277276313,-0.0329699625846853,8.86363636363636,58,1,5,5,0,0,1,0.0828861241309899,-0.039487312306657,-12.8867028493894
"423",53,0.392025793766812,0.190266496693182,0.129692058998618,0.340139134080118,NA,8.86363636363636,58,0.5,4.5,2.5,0,1,0,0.0828861241309899,-0.039487312306657,-12.8867028493894
"424",53,0.25020996963199,0.102280724367673,0.0622425669735104,0.191149991439889,NA,8.86363636363636,58,0.75,5,5,0,1,1,0.0828861241309899,-0.039487312306657,-12.8867028493894
"425",54,0.45021134069831,0.217606748871049,0.132042435282104,0.389628399653417,0.112960594649898,56.5909090909091,57,0.8125,5,4,1,0,0,0.0857689309756863,-0.0366045054619606,34.8405698778833
"426",54,0.254256456409253,0.143951695432869,0.0727145722530801,0.243346401138053,0.0697287285130957,56.5909090909091,57,0.75,4.5,5,1,0,1,0.0857689309756863,-0.0366045054619606,34.8405698778833
"427",54,0.409541945289632,0.208365000410137,0.121216177452006,0.324245356951237,NA,56.5909090909091,57,0.75,5,5,1,1,0,0.0857689309756863,-0.0366045054619606,34.8405698778833
"428",54,0.188519563154989,0.0896961276259731,0.0457275018935506,0.162144256768445,NA,56.5909090909091,57,0.75,3.5,5,1,1,1,0.0857689309756863,-0.0366045054619606,34.8405698778833
"429",54,0.472682844856032,0.218666376128445,0.132970708279954,0.422386368219092,0.117401539423196,56.5909090909091,57,0.75,5,4,0,0,0,0.0857689309756863,-0.0366045054619606,34.8405698778833
"430",54,0.108115799847186,0.0472704333527391,0.0167356764043129,0.0890225551212662,0.0873737082089983,56.5909090909091,57,0.5,3.5,5,0,0,1,0.0857689309756863,-0.0366045054619606,34.8405698778833
"431",54,0.42061839753161,0.212283513376747,0.13331062070477,0.370323458732346,NA,56.5909090909091,57,1,4.5,5,0,1,0,0.0857689309756863,-0.0366045054619606,34.8405698778833
"432",54,0.162963102695019,0.0682956390160326,0.0235319934721855,0.130553235086847,NA,56.5909090909091,57,0.5,4.5,5,0,1,1,0.0857689309756863,-0.0366045054619606,34.8405698778833
"433",55,0.482736378015407,0.208101345284702,0.147804106009394,0.386398552490372,0.10530070644608,19.7727272727273,57,0.6875,3,3,1,0,0,0.188222180806203,0.0658487443685561,-1.97761194029849
"434",55,0.314301717951821,0.163975106057968,0.100913865684188,0.254983253421991,0.0894923570670188,19.7727272727273,57,0.75,4,4,1,0,1,0.188222180806203,0.0658487443685561,-1.97761194029849
"435",55,0.461849864432461,0.203644341449184,0.138490688369276,0.354208916899611,NA,19.7727272727273,57,1,2.5,3.5,1,1,0,0.188222180806203,0.0658487443685561,-1.97761194029849
"436",55,0.221831968995438,0.12937763908755,0.0625457752550058,0.175145809567508,NA,19.7727272727273,57,0.75,4,5,1,1,1,0.188222180806203,0.0658487443685561,-1.97761194029849
"437",55,0.426666534482757,0.206888877151744,0.130285987389069,0.335223172197747,0.112144033191101,19.7727272727273,57,0.9375,3.5,4,0,0,0,0.188222180806203,0.0658487443685561,-1.97761194029849
"438",55,0.207820914094744,0.116169978334014,0.0441154559015304,0.212398763048452,0.0601856710539841,19.7727272727273,57,0.75,4,5,0,0,1,0.188222180806203,0.0658487443685561,-1.97761194029849
"439",55,0.464061903153345,0.206563844737871,0.129408019225436,0.379112896948999,NA,19.7727272727273,57,0.5,4,3,0,1,0,0.188222180806203,0.0658487443685561,-1.97761194029849
"440",55,0.313612646948454,0.140284434361459,0.0659330025391105,0.269768388547327,NA,19.7727272727273,57,0.75,3,5,0,1,1,0.188222180806203,0.0658487443685561,-1.97761194029849
"441",56,0.384621013388222,0.164594704304362,0.121325160038092,0.337222376391453,0.0972588111389366,37.7272727272727,56,0.875,2.5,3.5,1,0,0,0.070304741985131,-0.0520686944525159,15.9769335142469
"442",56,0.177146476291479,0.0750050133592714,0.0351747480012426,0.149319343233963,0.0412860291119985,37.7272727272727,56,0.75,2.5,4.5,1,0,1,0.070304741985131,-0.0520686944525159,15.9769335142469
"443",56,0.306919541721672,0.106039398989662,0.105145930681156,0.311498125061304,NA,37.7272727272727,56,1,3,3.5,1,1,0,0.070304741985131,-0.0520686944525159,15.9769335142469
"444",56,0.140833582545419,0.0641948386421251,0.0420426374611248,0.104355223776007,NA,37.7272727272727,56,0.25,2.5,5,1,1,1,0.070304741985131,-0.0520686944525159,15.9769335142469
"445",56,0.358068192234861,0.158302116224515,0.115467254016586,0.314411761448146,0.0424917311671828,37.7272727272727,56,0.8125,3,3.5,0,0,0,0.070304741985131,-0.0520686944525159,15.9769335142469
"446",56,0.172528700316058,0.0544237271992978,0.0403946528528479,0.164777352159987,-0.0119070587099179,37.7272727272727,56,0.5,3,5,0,0,1,0.070304741985131,-0.0520686944525159,15.9769335142469
"447",56,0.343392240821462,0.161990491584879,0.102201873008987,0.285579769123337,NA,37.7272727272727,56,0.75,3,3.5,0,1,0,0.070304741985131,-0.0520686944525159,15.9769335142469
"448",56,0.168140999650177,0.0302639600664051,0.0240273647813954,0.10606259193452,NA,37.7272727272727,56,1,2.5,5,0,1,1,0.070304741985131,-0.0520686944525159,15.9769335142469
"449",57,0.361932137268603,0.167787243143539,0.0985387967817104,0.315272312918911,0.151251101755072,24.3181818181818,56,0.75,2,1.5,1,0,0,0.180565870947332,0.0581924345096851,2.56784260515601
"450",57,0.246585139127928,0.10778475609668,0.0632962457632105,0.212247988872368,0.121839988896612,24.3181818181818,56,0.75,4,3,1,0,1,0.180565870947332,0.0581924345096851,2.56784260515601
"451",57,0.385803636761187,0.170660170086146,0.0879724725587996,0.321674262423189,NA,24.3181818181818,56,0.5,3,3,1,1,0,0.180565870947332,0.0581924345096851,2.56784260515601
"452",57,0.195498115871243,0.0800161083172553,0.0493534304316432,0.1517239075427,NA,24.3181818181818,56,0.75,5,5,1,1,1,0.180565870947332,0.0581924345096851,2.56784260515601
"453",57,0.321125812636135,0.120616926808807,0.0922761411010687,0.275424319736181,0.0370877892763776,24.3181818181818,56,0.875,3,2,0,0,0,0.180565870947332,0.0581924345096851,2.56784260515601
"454",57,0.135060912046942,0.0454911606039558,0.0353320150423152,0.127491182912764,0.0163823126208339,24.3181818181818,56,1,5,5,0,0,1,0.180565870947332,0.0581924345096851,2.56784260515601
"455",57,0.343206500739559,0.171151511866208,0.0919603740152359,0.322202443296445,NA,24.3181818181818,56,0.75,2.5,2.5,0,1,0,0.180565870947332,0.0581924345096851,2.56784260515601
"456",57,0.138779919866322,0.0485167564052504,0.013546859344772,0.107650032997376,NA,24.3181818181818,56,0.75,4.5,5,0,1,1,0.180565870947332,0.0581924345096851,2.56784260515601
"457",58,0.448508063638663,0.198570945126161,0.110664497927084,0.363339111663313,0.124735802589497,22.7272727272727,55,0.8125,3,3,1,0,0,0.25365406623659,0.131280629798943,0.976933514246916
"458",58,0.148307958940867,0.0899864012345617,0.0604071010452188,0.147454972730585,0.0532519459646501,22.7272727272727,55,0.5,4,5,1,0,1,0.25365406623659,0.131280629798943,0.976933514246916
"459",58,0.352823687000626,0.186633557764193,0.102896583051117,0.278023448863644,NA,22.7272727272727,55,0.75,4,4,1,1,0,0.25365406623659,0.131280629798943,0.976933514246916
"460",58,0.209845477166426,0.105554306687209,0.0350876760786542,0.192974376072644,NA,22.7272727272727,55,0.75,5,5,1,1,1,0.25365406623659,0.131280629798943,0.976933514246916
"461",58,0.391110736543211,0.174727075993047,0.0989363269844881,0.31402542031979,0.000935921290702427,22.7272727272727,55,0.8125,3.5,3,0,0,0,0.25365406623659,0.131280629798943,0.976933514246916
"462",58,0.211794755241349,0.0968458568743542,0.0344076675487524,0.165573320426636,0.0319329313110764,22.7272727272727,55,0.5,4,5,0,0,1,0.25365406623659,0.131280629798943,0.976933514246916
"463",58,0.418678404140306,0.190682422829925,0.101581554545475,0.327640097204078,NA,22.7272727272727,55,1,2.5,3,0,1,0,0.25365406623659,0.131280629798943,0.976933514246916
"464",58,0.1653544544174,0.0876957843952697,0.0291830644480727,0.155354397628405,NA,22.7272727272727,55,0.75,5,5,0,1,1,0.25365406623659,0.131280629798943,0.976933514246916
"465",59,0.383762780110647,0.128554717526329,0.0862430711117065,0.315882259180752,0.0948352136724141,11.3636363636364,54,0.625,4,2.5,1,0,0,0.00860133098587847,-0.113772105451768,-10.3867028493894
"466",59,0.194581929412128,0.108861179851792,0.0268989056282831,0.167506694438055,0.0833796438684742,11.3636363636364,54,0.75,4,3,1,0,1,0.00860133098587847,-0.113772105451768,-10.3867028493894
"467",59,0.359588188881466,0.135281779851995,0.0870248329978239,0.296817766328692,NA,11.3636363636364,54,0.75,4,4,1,1,0,0.00860133098587847,-0.113772105451768,-10.3867028493894
"468",59,0.152380842767848,0.0773149751974863,0.0240975393513169,0.12847566009364,NA,11.3636363636364,54,0.75,4.5,4,1,1,1,0.00860133098587847,-0.113772105451768,-10.3867028493894
"469",59,0.399922376146721,0.142903060719833,0.0991337483701469,0.328615758875414,0.0733989541662454,11.3636363636364,54,0.75,3.5,2.5,0,0,0,0.00860133098587847,-0.113772105451768,-10.3867028493894
"470",59,0.145055550629337,0.0480775131255436,0.016503281408837,0.101221658581188,0.0182054091345546,11.3636363636364,54,0.5,5,5,0,0,1,0.00860133098587847,-0.113772105451768,-10.3867028493894
"471",59,0.347451847654076,0.112951114800899,0.0885721860082128,0.302396247110874,NA,11.3636363636364,54,0.75,4,3,0,1,0,0.00860133098587847,-0.113772105451768,-10.3867028493894
"472",59,0.116711218715624,0.0550608026443615,0.0354715593360433,0.108297797400053,NA,11.3636363636364,54,1,5,4.5,0,1,1,0.00860133098587847,-0.113772105451768,-10.3867028493894
"473",60,0.481043015806337,0.175796538671753,0.118657677051169,0.37275989436305,0.110581451892139,6.81818181818182,53,0.75,3.5,4,1,0,0,0.202079233675251,0.0797057972376041,-14.932157394844
"474",60,0.202649389609882,0.0583110885150935,0.0204798491712801,0.167153084393847,0.117257519098171,6.81818181818182,53,0.25,5,4.5,1,0,1,0.202079233675251,0.0797057972376041,-14.932157394844
"475",60,0.464675967135065,0.19178577214877,0.116194506973097,0.408578090705061,NA,6.81818181818182,53,1,2,4.5,1,1,0,0.202079233675251,0.0797057972376041,-14.932157394844
"476",60,0.249733836236918,0.0702079299366501,0.0485990857741344,0.179989135610022,NA,6.81818181818182,53,0.5,3,5,1,1,1,0.202079233675251,0.0797057972376041,-14.932157394844
"477",60,0.479313201311685,0.168823043370381,0.136451282004561,0.396386795526831,0.0965101683892061,6.81818181818182,53,0.625,4,3.5,0,0,0,0.202079233675251,0.0797057972376041,-14.932157394844
"478",60,0.16807240201033,0.0275876349285108,0.0202683255155463,0.148690923260686,0.0484458742183562,6.81818181818182,53,1,4.5,5,0,0,1,0.202079233675251,0.0797057972376041,-14.932157394844
"479",60,0.505702864317097,0.200037661153216,0.12988129651187,0.438141083280109,NA,6.81818181818182,53,0.5,5,4,0,1,0,0.202079233675251,0.0797057972376041,-14.932157394844
"480",60,0.093469923956417,0.00703151870712772,0.0274584817691466,0.0694001612535425,NA,6.81818181818182,53,0.5,3,4,0,1,1,0.202079233675251,0.0797057972376041,-14.932157394844
"481",61,0.351565650397798,0.174446579849236,0.0993715209711509,0.31101782733918,0.0754842397513013,47.9545454545455,53,0.5,5,5,1,0,0,0.068469112899927,-0.0539043235377199,26.2042062415197
"482",61,0.138021741734039,0.0644041879703371,0.0248991854913154,0.107375285249411,0.0611519706664624,47.9545454545455,53,0.5,5,5,1,0,1,0.068469112899927,-0.0539043235377199,26.2042062415197
"483",61,0.251427948310412,0.0551704256479102,0.0314837053933573,0.192591521457189,NA,47.9545454545455,53,0.5,5,5,1,1,0,0.068469112899927,-0.0539043235377199,26.2042062415197
"484",61,0.0925545213136356,0.0336827050017514,0.0208669898084803,0.0556530930645737,NA,47.9545454545455,53,0.25,5,5,1,1,1,0.068469112899927,-0.0539043235377199,26.2042062415197
"485",61,0.407033139480521,0.189844572171352,0.0961664517273967,0.3209593179283,0.123325232712128,47.9545454545455,53,0.625,5,5,0,0,0,0.068469112899927,-0.0539043235377199,26.2042062415197
"486",61,0.123261277638029,0.0329458507702244,0.00890697575649056,0.0991923099524494,0.015477342248753,47.9545454545455,53,0.5,5,5,0,0,1,0.068469112899927,-0.0539043235377199,26.2042062415197
"487",61,0.324844194020304,0.148621161094903,0.0737161917202785,0.268217160293558,NA,47.9545454545455,53,0.25,5,5,0,1,0,0.068469112899927,-0.0539043235377199,26.2042062415197
"488",61,0.112727519511482,0.080575721149065,0.0341931354147223,0.100686273875647,NA,47.9545454545455,53,0.25,5,5,0,1,1,0.068469112899927,-0.0539043235377199,26.2042062415197
"489",62,0.343561883414269,0.137111473752698,0.0839796617940183,0.291573432447037,0.156137135091713,4.54545454545454,52,0.8125,5,3,1,0,0,0.0650880437191134,-0.0572853927185335,-17.2048846675712
"490",62,0.190309155043398,0.0896660306528684,0.0220256057600444,0.144997305852816,0.0513522737524501,4.54545454545454,52,0.75,5,4.5,1,0,1,0.0650880437191134,-0.0572853927185335,-17.2048846675712
"491",62,0.251412838819197,0.0866926975116081,0.0706760108781123,0.211360246131376,NA,4.54545454545454,52,0.75,5,5,1,1,0,0.0650880437191134,-0.0572853927185335,-17.2048846675712
"492",62,0.10779988879585,0.0652901925016002,0.042115323443168,0.10450077238836,NA,4.54545454545454,52,0.75,5,5,1,1,1,0.0650880437191134,-0.0572853927185335,-17.2048846675712
"493",62,0.206788731004649,0.100804367782327,0.0531631943167754,0.183342826291058,0.087396998563764,4.54545454545454,52,0.875,5,4,0,0,0,0.0650880437191134,-0.0572853927185335,-17.2048846675712
"494",62,0.00724196387369817,0.0225902070946054,0.00806275656222777,0.00959147377427035,0.00363643379653789,4.54545454545454,52,1,5,4.5,0,0,1,0.0650880437191134,-0.0572853927185335,-17.2048846675712
"495",62,0.260628676679184,0.1421447733099,0.0779680913420545,0.214618153663258,NA,4.54545454545454,52,0.75,3.5,5,0,1,0,0.0650880437191134,-0.0572853927185335,-17.2048846675712
"496",62,0.160834153966411,0.0568611768131725,0.0105664283488723,0.142803616121692,NA,4.54545454545454,52,0.5,5,5,0,1,1,0.0650880437191134,-0.0572853927185335,-17.2048846675712
"497",63,0.490818450914822,0.22434236687875,0.143368438558711,0.408064224483231,0.163807822616503,33.1818181818182,50,0.625,3.5,2.5,1,0,0,0.142707174277795,0.0203337378401481,11.4314789687924
"498",63,0.251074970644265,0.104684014823735,0.0498805063247161,0.159039691150622,0.15079980470493,33.1818181818182,50,0.75,5,4,1,0,1,0.142707174277795,0.0203337378401481,11.4314789687924
"499",63,0.408903354034168,0.187591629706836,0.134797313433435,0.343365695085232,NA,33.1818181818182,50,0.25,5,5,1,1,0,0.142707174277795,0.0203337378401481,11.4314789687924
"500",63,0.222036846313776,0.0976692578687245,0.0618927178235033,0.1573534932278,NA,33.1818181818182,50,0.75,4,4,1,1,1,0.142707174277795,0.0203337378401481,11.4314789687924
"501",63,0.423910588782096,0.187943244623105,0.140394523947377,0.34365250392347,0.082366726193997,33.1818181818182,50,0.5625,4,4,0,0,0,0.142707174277795,0.0203337378401481,11.4314789687924
"502",63,0.204261275374017,0.0946589293084854,0.0502938217140326,0.152680329409581,0.0481994562913017,33.1818181818182,50,0.75,5,5,0,0,1,0.142707174277795,0.0203337378401481,11.4314789687924
"503",63,0.49342577933232,0.209851895491698,0.145185260627793,0.40195776038283,NA,33.1818181818182,50,0.5,4,4,0,1,0,0.142707174277795,0.0203337378401481,11.4314789687924
"504",63,0.15577692470177,0.0822177668798445,0.0531857723725456,0.142383964040221,NA,33.1818181818182,50,0.75,5,5,0,1,1,0.142707174277795,0.0203337378401481,11.4314789687924
"505",64,0.47940573156813,0.228106508614509,0.140582335710583,0.402150448936617,0.0848231643603018,20.9090909090909,46,0.625,5,5,1,0,0,0.0224529347073391,-0.0999205017303078,-0.841248303934886
"506",64,0.179473512403864,0.0998557770817979,0.0537624774342417,0.196653765090636,0.0495449909420815,20.9090909090909,46,0.75,5,5,1,0,1,0.0224529347073391,-0.0999205017303078,-0.841248303934886
"507",64,0.483439096343258,0.217712854916327,0.15657973493347,0.407905463224454,NA,20.9090909090909,46,1,5,4.5,1,1,0,0.0224529347073391,-0.0999205017303078,-0.841248303934886
"508",64,0.185834804013375,0.0686752881308446,0.060611849696507,0.162323380235405,NA,20.9090909090909,46,0.5,5,5,1,1,1,0.0224529347073391,-0.0999205017303078,-0.841248303934886
"509",64,0.449909201455774,0.195948762496336,0.139288032738341,0.38526300063541,0.086719802158572,20.9090909090909,46,0.5625,5,5,0,0,0,0.0224529347073391,-0.0999205017303078,-0.841248303934886
"510",64,0.175738619826856,0.100733080935959,0.0431552352405028,0.16951790682707,0.0601032662690941,20.9090909090909,46,0.25,5,5,0,0,1,0.0224529347073391,-0.0999205017303078,-0.841248303934886
"511",64,0.432207212431105,0.216526299851301,0.123573837979474,0.388457816881503,NA,20.9090909090909,46,0.5,5,4.5,0,1,0,0.0224529347073391,-0.0999205017303078,-0.841248303934886
"512",64,0.189816005216093,0.0712909240296647,0.0490517921469753,0.162432975627132,NA,20.9090909090909,46,1,5,5,0,1,1,0.0224529347073391,-0.0999205017303078,-0.841248303934886
"513",65,0.470554617213996,0.218247204130513,0.142905404729477,0.396124412447406,0.12942668324828,12.7272727272727,43,0.75,5,1.5,1,0,0,0.0980389074126299,-0.024334529025017,-9.02306648575309
"514",65,0.25369383695557,0.112378785747534,0.0598436141594113,0.213174712667874,0.0720982810529521,12.7272727272727,43,0.25,5,4,1,0,1,0.0980389074126299,-0.024334529025017,-9.02306648575309
"515",65,0.482449269265438,0.241099113770537,0.124779897843794,0.434334768053476,NA,12.7272727272727,43,0.5,5,1,1,1,0,0.0980389074126299,-0.024334529025017,-9.02306648575309
"516",65,0.237691659025347,0.107147745559518,0.0609988538035581,0.19737183038393,NA,12.7272727272727,43,0.75,5,5,1,1,1,0.0980389074126299,-0.024334529025017,-9.02306648575309
"517",65,0.497679968542096,0.236794515869787,0.136008457846897,0.438676215864603,0.0863172668066388,12.7272727272727,43,0.8125,4.5,1.5,0,0,0,0.0980389074126299,-0.024334529025017,-9.02306648575309
"518",65,0.182166418421466,0.101481793407397,0.039710053187506,0.158884521309576,0.0199482746225463,12.7272727272727,43,0.25,5,5,0,0,1,0.0980389074126299,-0.024334529025017,-9.02306648575309
"519",65,0.472213791245911,0.216080305762578,0.140295172134623,0.397250196976706,NA,12.7272727272727,43,0.75,5,1,0,1,0,0.0980389074126299,-0.024334529025017,-9.02306648575309
"520",65,0.213653479284879,0.0969762286293766,0.0622770788697212,0.178091130991611,NA,12.7272727272727,43,0.5,5,5,0,1,1,0.0980389074126299,-0.024334529025017,-9.02306648575309
"521",66,0.460476838457573,0.180663626877301,0.119515672729488,0.386301291179555,0.119988473488177,2.04545454545455,42,0.5,3.5,3.5,1,0,0,0.230216289610824,0.107842853173177,-19.7048846675712
"522",66,0.252749562934197,0.108753398653669,0.0617357209230516,0.187259193811133,0.0970092078950451,2.04545454545455,42,0.5,3,3.5,1,0,1,0.230216289610824,0.107842853173177,-19.7048846675712
"523",66,0.4206941615869,0.16588902193217,0.109887670918075,0.36418466459797,NA,2.04545454545455,42,0.75,3,3.5,1,1,0,0.230216289610824,0.107842853173177,-19.7048846675712
"524",66,0.240877846664997,0.114320244541869,0.053732104388182,0.208913612195285,NA,2.04545454545455,42,0.25,3.5,4,1,1,1,0.230216289610824,0.107842853173177,-19.7048846675712
"525",66,0.402322340679674,0.14421886219201,0.104828471446165,0.342674298542975,0.06738027439593,2.04545454545455,42,0.5625,3.5,3,0,0,0,0.230216289610824,0.107842853173177,-19.7048846675712
"526",66,0.179771248284874,0.0722465995128128,0.0204368563661713,0.155077379396367,-0.0113917812291151,2.04545454545455,42,0.5,3,3.5,0,0,1,0.230216289610824,0.107842853173177,-19.7048846675712
"527",66,0.376542228571409,0.177465527802193,0.0969335901316087,0.323224025232555,NA,2.04545454545455,42,0.5,4,4,0,1,0,0.230216289610824,0.107842853173177,-19.7048846675712
"528",66,0.159180149790982,0.072063245350643,0.036240374724909,0.139139011545318,NA,2.04545454545455,42,0.75,4.5,4.5,0,1,1,0.230216289610824,0.107842853173177,-19.7048846675712
"529",67,0.28326706480148,0.124709268183501,0.0903201323072886,0.253963351474015,0.0592736878223186,25.4545454545455,41,0.9375,2.5,2.5,1,0,0,0.0336953589293498,-0.0886780775082971,3.70420624151971
"530",67,0.155842753277943,0.0767499554544319,0.0434885063553184,0.14772316006247,0.0543694661067755,25.4545454545455,41,0.5,4,4,1,0,1,0.0336953589293498,-0.0886780775082971,3.70420624151971
"531",67,0.365967580948051,0.138685304328731,0.109416735763159,0.278691064996724,NA,25.4545454545455,41,1,3,2.5,1,1,0,0.0336953589293498,-0.0886780775082971,3.70420624151971
"532",67,0.207149747364187,0.0939100886870264,0.0222045761976205,0.168709227068854,NA,25.4545454545455,41,1,4.5,4,1,1,1,0.0336953589293498,-0.0886780775082971,3.70420624151971
"533",67,0.328462666619527,0.131747429521623,0.0900092005500707,0.264371524072839,0.0798357894692534,25.4545454545455,41,0.75,3,3,0,0,0,0.0336953589293498,-0.0886780775082971,3.70420624151971
"534",67,0.169733415218114,0.0725375836134281,0.0328208282246606,0.151374447554776,0.0699760624716421,25.4545454545455,41,0.5,5,5,0,0,1,0.0336953589293498,-0.0886780775082971,3.70420624151971
"535",67,0.285982355921842,0.0880367492068815,0.0625782033364422,0.204456886746946,NA,25.4545454545455,41,0.75,2.5,2.5,0,1,0,0.0336953589293498,-0.0886780775082971,3.70420624151971
"536",67,0.121987534486533,0.0462208225271498,0.0209271941874909,0.0864168946153141,NA,25.4545454545455,41,1,4,4.5,0,1,1,0.0336953589293498,-0.0886780775082971,3.70420624151971
